src/stack/simulation/qsim/stack.msim.vcd
$comment
	File created using the following command:
		vcd file stack.msim.vcd -direction
$end
$date
	Thu Aug 16 01:59:26 2018
$end
$version
	ModelSim Version 10.1d
$end
$timescale
	1ps
$end
$scope module stack_vlg_vec_tst $end
$var reg 1 ! clk $end
$var reg 8 " push_value [7:0] $end
$var reg 1 # reset $end
$var wire 1 $ pop $end
$var wire 1 % pop_first [7] $end
$var wire 1 & pop_first [6] $end
$var wire 1 ' pop_first [5] $end
$var wire 1 ( pop_first [4] $end
$var wire 1 ) pop_first [3] $end
$var wire 1 * pop_first [2] $end
$var wire 1 + pop_first [1] $end
$var wire 1 , pop_first [0] $end
$var wire 1 - pop_second [7] $end
$var wire 1 . pop_second [6] $end
$var wire 1 / pop_second [5] $end
$var wire 1 0 pop_second [4] $end
$var wire 1 1 pop_second [3] $end
$var wire 1 2 pop_second [2] $end
$var wire 1 3 pop_second [1] $end
$var wire 1 4 pop_second [0] $end
$var wire 1 5 push $end
$var wire 1 6 sampler $end
$scope module i1 $end
$var wire 1 7 gnd $end
$var wire 1 8 vcc $end
$var wire 1 9 unknown $end
$var tri1 1 : devclrn $end
$var tri1 1 ; devpor $end
$var tri1 1 < devoe $end
$upscope $end
$upscope $end
$enddefinitions $end
#0
$dumpvars
0!
b1110011 "
0#
0$
0,
0+
0*
0)
0(
0'
0&
0%
04
03
02
01
00
0/
0.
0-
05
x6
07
18
x9
1:
1;
1<
$end
#10000
b11110011 "
b11100011 "
b11100111 "
b11100110 "
06
#20000
b11101110 "
b1101110 "
b1111110 "
b1111111 "
16
#30000
b111111 "
b11111 "
06
#40000
b11011 "
b10011 "
b10010011 "
b10010010 "
16
#50000
b10010000 "
b10000000 "
b11000000 "
b11100000 "
b11101000 "
b1101000 "
06
#60000
b1101001 "
b1111001 "
b11111001 "
16
#70000
b11111101 "
b11111111 "
b11111110 "
06
#80000
b10111110 "
b10011110 "
b10010110 "
b10000110 "
b10000010 "
16
#90000
b10 "
b11 "
b1000011 "
b1100011 "
b1101011 "
06
#100000
b1111011 "
b1011011 "
16
#120000
b11011 "
b111011 "
06
#130000
b111001 "
b111000 "
b110000 "
b100000 "
b1100000 "
16
#140000
b1101000 "
b1111000 "
06
#150000
b11111000 "
b11111010 "
b11111011 "
b10111011 "
16
#160000
b10011011 "
b11011 "
b11001 "
b1011001 "
06
#170000
b1010001 "
b1010011 "
b10011 "
16
#180000
b11 "
b10 "
b100010 "
b101010 "
06
#190000
b10101010 "
b11101010 "
b11111010 "
b11110010 "
16
#200000
b11110000 "
b11100000 "
06
#210000
b11100100 "
b11000100 "
b1000100 "
b100 "
16
#220000
b1000100 "
06
#230000
b1000110 "
b1010110 "
b1110110 "
b110110 "
16
#240000
b111110 "
b111010 "
b10111010 "
b10101010 "
b11101010 "
06
#250000
b11001010 "
b11000010 "
b1000010 "
b1010010 "
b10010 "
16
#260000
b10011 "
b10111 "
b11111 "
b10011111 "
b10001111 "
b11001111 "
06
#270000
b11101111 "
b11101011 "
b1101011 "
b1111011 "
16
#280000
b1111010 "
b1101010 "
06
#290000
b1101000 "
b1100000 "
b100000 "
b10100000 "
b10100001 "
16
#300000
b10100101 "
b10110101 "
b11110101 "
b1110101 "
b1110100 "
06
#310000
b1010100 "
b1000100 "
b11000100 "
16
#320000
b11001100 "
b11001000 "
b10001000 "
b10001001 "
b10011001 "
06
#330000
b10111001 "
b10110001 "
b10110101 "
b10110100 "
16
#340000
b110100 "
b1110100 "
b1100100 "
06
#350000
b1100000 "
b100000 "
b110000 "
16
#360000
b110010 "
b10010 "
b11010 "
b11011 "
b10011011 "
b10011111 "
b11011111 "
b11001111 "
06
#370000
b11101111 "
b11101110 "
b11101010 "
16
#380000
b11101000 "
b10101000 "
b10111000 "
06
#390000
b10110000 "
b10110001 "
b10110101 "
b10110111 "
16
#400000
b110111 "
b10111 "
b1010111 "
b1011111 "
06
#410000
b1011110 "
b1011100 "
16
#420000
b1001100 "
b1001000 "
b11001000 "
b11000000 "
b11000001 "
06
#430000
b11100001 "
b11100011 "
b11110011 "
b11111011 "
b11111010 "
16
#440000
b11111110 "
b11111111 "
06
#450000
b1111111 "
b1011111 "
16
#460000
b1011101 "
b1010101 "
06
#470000
b10101 "
b11101 "
16
#480000
b1101 "
b1001 "
b1000 "
b1001000 "
b1000000 "
06
#490000
b1010000 "
b1010100 "
b10100 "
b11100 "
16
#500000
b11110 "
b11111 "
b1111 "
b1001111 "
b1000111 "
06
#510000
b1100111 "
b1100110 "
b1110110 "
b110110 "
16
#520000
b110010 "
b110000 "
b111000 "
b111001 "
b1111001 "
06
#530000
b1011001 "
b1001001 "
b1000001 "
b1000000 "
b0 "
16
#540000
b10000000 "
b10000100 "
b10010100 "
b11010100 "
06
#550000
b11010110 "
b11110110 "
b11111110 "
b11111111 "
b1111111 "
b1101111 "
16
#560000
b11101111 "
06
#570000
b11101011 "
b11001011 "
b11001010 "
16
#580000
b10001010 "
b10001000 "
b10011000 "
06
#590000
b10010000 "
b10110000 "
b10110001 "
b11110001 "
b11110011 "
b11100011 "
16
#600000
b11100111 "
b11000111 "
b10000111 "
b10000101 "
06
#610000
b101 "
b100 "
b1000100 "
b1000110 "
16
#620000
b1001110 "
b1001010 "
b1101010 "
b1101011 "
b101011 "
06
#630000
b10101011 "
b10101001 "
b11101001 "
16
#640000
b11111001 "
b11110001 "
b11010001 "
b11010011 "
b10010011 "
06
#650000
b10010111 "
b10000111 "
b10001111 "
b10001101 "
b11001101 "
16
#660000
b1001101 "
b1000101 "
b1000111 "
b111 "
06
#670000
b100111 "
b110111 "
b10110111 "
b10111111 "
b10111101 "
b11111101 "
16
#680000
b11111001 "
b10111001 "
06
#690000
b10111000 "
b10011000 "
b10001000 "
b1000 "
b1010 "
16
#700000
b10 "
b1000010 "
b1000011 "
b1010011 "
b11010011 "
b11010001 "
06
#710000
b11110001 "
b11111001 "
b11101001 "
b1101001 "
16
#720000
b1101101 "
b1100101 "
b11100101 "
06
#730000
b11100100 "
b11110100 "
b1110100 "
16
#740000
b1110110 "
b1111110 "
b1111111 "
b11111111 "
06
#750000
b11111110 "
16
#760000
b11111010 "
b11101010 "
b11101000 "
b11100000 "
b1100000 "
b1100001 "
06
#770000
b100001 "
b100011 "
16
#780000
b11 "
b111 "
b1000111 "
b1000101 "
06
#790000
b11000101 "
b11000100 "
b11100100 "
16
#800000
b11101100 "
b11101000 "
b1101000 "
b1001000 "
06
#810000
b1101000 "
16
#820000
b101000 "
b101010 "
b101011 "
b100011 "
b10100011 "
06
#830000
b10100111 "
b10000111 "
b11000111 "
b11000110 "
b11001110 "
b1001110 "
16
#840000
b1001010 "
b1001011 "
b1000011 "
b11000011 "
06
#850000
b11000001 "
b10000001 "
b10000101 "
b10001101 "
b1101 "
16
#860000
b101101 "
b101100 "
b101110 "
b101010 "
b100010 "
b10100010 "
06
#870000
b10000010 "
b10000011 "
b10001011 "
16
#880000
b10011011 "
b11011011 "
b11011001 "
b11011101 "
b11011100 "
06
#890000
b1011100 "
b1111100 "
b1110100 "
b1110000 "
16
#900000
b1110001 "
b1110101 "
06
#910000
b1100101 "
b100101 "
b10100101 "
b10000101 "
b10000001 "
16
#920000
b10000011 "
b10001011 "
b10001010 "
b10011010 "
06
#930000
b11011010 "
b11010010 "
b11010011 "
b11000011 "
16
#940000
b1000011 "
b1100011 "
b1101011 "
b1101010 "
b1111010 "
06
#950000
b1111000 "
b111000 "
16
#960000
b10111000 "
b10111001 "
b10101001 "
b10101011 "
b11101011 "
06
#970000
b11101111 "
b11001111 "
b1001111 "
b1001110 "
b1011110 "
16
#980000
b1010110 "
b1010100 "
b10100 "
b110100 "
b110101 "
06
#990000
b111101 "
b111100 "
16
