src/stack/simulation/qsim/stack.msim.vcd
$comment
	File created using the following command:
		vcd file stack.msim.vcd -direction
$end
$date
	Mon Aug 13 17:43:37 2018
$end
$version
	ModelSim Version 10.1d
$end
$timescale
	1ps
$end
$scope module stack_vlg_vec_tst $end
$var reg 1 ! clk $end
$var reg 1 " pop $end
$var reg 1 # push $end
$var reg 8 $ push_value [7:0] $end
$var wire 1 % error $end
$var wire 1 & pop_value [7] $end
$var wire 1 ' pop_value [6] $end
$var wire 1 ( pop_value [5] $end
$var wire 1 ) pop_value [4] $end
$var wire 1 * pop_value [3] $end
$var wire 1 + pop_value [2] $end
$var wire 1 , pop_value [1] $end
$var wire 1 - pop_value [0] $end
$var wire 1 . sampler $end
$scope module i1 $end
$var wire 1 / gnd $end
$var wire 1 0 vcc $end
$var wire 1 1 unknown $end
$var tri1 1 2 devclrn $end
$var tri1 1 3 devpor $end
$var tri1 1 4 devoe $end
$var wire 1 5 Add0~60_combout $end
$var wire 1 6 Add1~34_combout $end
$var wire 1 7 Add1~54_combout $end
$var wire 1 8 Add1~60_combout $end
$var wire 1 9 stack~93_regout $end
$var wire 1 : stack~29_regout $end
$var wire 1 ; stack~62_regout $end
$var wire 1 < stack~94_regout $end
$var wire 1 = stack~30_regout $end
$var wire 1 > stack~151_combout $end
$var wire 1 ? stack~126_regout $end
$var wire 1 @ stack~152_combout $end
$var wire 1 A stack~54_regout $end
$var wire 1 B stack~22_regout $end
$var wire 1 C stack~153_combout $end
$var wire 1 D stack~63_regout $end
$var wire 1 E stack~23_regout $end
$var wire 1 F stack~31_regout $end
$var wire 1 G stack~15_regout $end
$var wire 1 H stack~165_combout $end
$var wire 1 I stack~39_regout $end
$var wire 1 J stack~166_combout $end
$var wire 1 K stack~127_regout $end
$var wire 1 L stack~56_regout $end
$var wire 1 M stack~88_regout $end
$var wire 1 N stack~24_regout $end
$var wire 1 O stack~171_combout $end
$var wire 1 P stack~120_regout $end
$var wire 1 Q stack~172_combout $end
$var wire 1 R stack~96_regout $end
$var wire 1 S stack~104_regout $end
$var wire 1 T stack~97_regout $end
$var wire 1 U stack~57_regout $end
$var wire 1 V stack~65_regout $end
$var wire 1 W stack~49_regout $end
$var wire 1 X stack~183_combout $end
$var wire 1 Y stack~73_regout $end
$var wire 1 Z stack~184_combout $end
$var wire 1 [ stack~33_regout $end
$var wire 1 \ stack~25_regout $end
$var wire 1 ] stack~17_regout $end
$var wire 1 ^ stack~185_combout $end
$var wire 1 _ stack~41_regout $end
$var wire 1 ` stack~186_combout $end
$var wire 1 a stack~187_combout $end
$var wire 1 b stack~121_regout $end
$var wire 1 c stack~129_regout $end
$var wire 1 d stack~66_regout $end
$var wire 1 e stack~98_regout $end
$var wire 1 f stack~34_regout $end
$var wire 1 g stack~191_combout $end
$var wire 1 h stack~130_regout $end
$var wire 1 i stack~192_combout $end
$var wire 1 j stack~90_regout $end
$var wire 1 k stack~58_regout $end
$var wire 1 l stack~26_regout $end
$var wire 1 m stack~193_combout $end
$var wire 1 n stack~122_regout $end
$var wire 1 o stack~194_combout $end
$var wire 1 p stack~50_regout $end
$var wire 1 q stack~74_regout $end
$var wire 1 r stack~131_regout $end
$var wire 1 s stack~60_regout $end
$var wire 1 t stack~76_regout $end
$var wire 1 u LessThan1~2_combout $end
$var wire 1 v LessThan1~6_combout $end
$var wire 1 w stack~241_combout $end
$var wire 1 x top[30]~33_combout $end
$var wire 1 y stack~54feeder_combout $end
$var wire 1 z stack~62feeder_combout $end
$var wire 1 { stack~23feeder_combout $end
$var wire 1 | stack~56feeder_combout $end
$var wire 1 } stack~104feeder_combout $end
$var wire 1 ~ stack~96feeder_combout $end
$var wire 1 !! stack~97feeder_combout $end
$var wire 1 "! stack~129feeder_combout $end
$var wire 1 #! stack~57feeder_combout $end
$var wire 1 $! stack~121feeder_combout $end
$var wire 1 %! stack~25feeder_combout $end
$var wire 1 &! stack~74feeder_combout $end
$var wire 1 '! stack~66feeder_combout $end
$var wire 1 (! stack~58feeder_combout $end
$var wire 1 )! stack~90feeder_combout $end
$var wire 1 *! stack~131feeder_combout $end
$var wire 1 +! stack~76feeder_combout $end
$var wire 1 ,! clk~combout $end
$var wire 1 -! clk~clkctrl_outclk $end
$var wire 1 .! stack~117feeder_combout $end
$var wire 1 /! pop~combout $end
$var wire 1 0! Add0~0_combout $end
$var wire 1 1! Add1~0_combout $end
$var wire 1 2! top[0]~2_combout $end
$var wire 1 3! top[0]~1_combout $end
$var wire 1 4! Add0~1 $end
$var wire 1 5! Add0~2_combout $end
$var wire 1 6! Add1~1 $end
$var wire 1 7! Add1~2_combout $end
$var wire 1 8! top[1]~0_combout $end
$var wire 1 9! Add1~3 $end
$var wire 1 :! Add1~4_combout $end
$var wire 1 ;! Add0~3 $end
$var wire 1 <! Add0~4_combout $end
$var wire 1 =! top[2]~4_combout $end
$var wire 1 >! Add1~5 $end
$var wire 1 ?! Add1~6_combout $end
$var wire 1 @! Add0~5 $end
$var wire 1 A! Add0~6_combout $end
$var wire 1 B! top[3]~3_combout $end
$var wire 1 C! Add0~7 $end
$var wire 1 D! Add0~9 $end
$var wire 1 E! Add0~11 $end
$var wire 1 F! Add0~13 $end
$var wire 1 G! Add0~14_combout $end
$var wire 1 H! Add1~7 $end
$var wire 1 I! Add1~8_combout $end
$var wire 1 J! Add0~8_combout $end
$var wire 1 K! top[4]~7_combout $end
$var wire 1 L! Add1~9 $end
$var wire 1 M! Add1~10_combout $end
$var wire 1 N! Add0~10_combout $end
$var wire 1 O! top[5]~8_combout $end
$var wire 1 P! Add1~11 $end
$var wire 1 Q! Add1~12_combout $end
$var wire 1 R! Add0~12_combout $end
$var wire 1 S! top[6]~9_combout $end
$var wire 1 T! Add1~13 $end
$var wire 1 U! Add1~14_combout $end
$var wire 1 V! top[7]~10_combout $end
$var wire 1 W! Add0~15 $end
$var wire 1 X! Add0~17 $end
$var wire 1 Y! Add0~18_combout $end
$var wire 1 Z! Add1~15 $end
$var wire 1 [! Add1~16_combout $end
$var wire 1 \! Add0~16_combout $end
$var wire 1 ]! top[8]~11_combout $end
$var wire 1 ^! Add1~17 $end
$var wire 1 _! Add1~18_combout $end
$var wire 1 `! top[9]~12_combout $end
$var wire 1 a! Add0~19 $end
$var wire 1 b! Add0~20_combout $end
$var wire 1 c! Add1~19 $end
$var wire 1 d! Add1~20_combout $end
$var wire 1 e! top[10]~13_combout $end
$var wire 1 f! Add0~21 $end
$var wire 1 g! Add0~22_combout $end
$var wire 1 h! Add1~21 $end
$var wire 1 i! Add1~22_combout $end
$var wire 1 j! top[11]~14_combout $end
$var wire 1 k! Add1~23 $end
$var wire 1 l! Add1~25 $end
$var wire 1 m! Add1~27 $end
$var wire 1 n! Add1~28_combout $end
$var wire 1 o! Add1~26_combout $end
$var wire 1 p! Add0~23 $end
$var wire 1 q! Add0~24_combout $end
$var wire 1 r! Add1~24_combout $end
$var wire 1 s! top[12]~15_combout $end
$var wire 1 t! Add0~25 $end
$var wire 1 u! Add0~26_combout $end
$var wire 1 v! top[13]~16_combout $end
$var wire 1 w! Add0~27 $end
$var wire 1 x! Add0~28_combout $end
$var wire 1 y! top[14]~17_combout $end
$var wire 1 z! Add1~29 $end
$var wire 1 {! Add1~31 $end
$var wire 1 |! Add1~32_combout $end
$var wire 1 }! Add0~29 $end
$var wire 1 ~! Add0~30_combout $end
$var wire 1 !" Add1~30_combout $end
$var wire 1 "" top[15]~18_combout $end
$var wire 1 #" Add0~31 $end
$var wire 1 $" Add0~32_combout $end
$var wire 1 %" top[16]~19_combout $end
$var wire 1 &" Add0~33 $end
$var wire 1 '" Add0~34_combout $end
$var wire 1 (" top[17]~20_combout $end
$var wire 1 )" Add0~35 $end
$var wire 1 *" Add0~36_combout $end
$var wire 1 +" Add1~33 $end
$var wire 1 ," Add1~35 $end
$var wire 1 -" Add1~36_combout $end
$var wire 1 ." top[18]~21_combout $end
$var wire 1 /" Add1~37 $end
$var wire 1 0" Add1~39 $end
$var wire 1 1" Add1~41 $end
$var wire 1 2" Add1~43 $end
$var wire 1 3" Add1~45 $end
$var wire 1 4" Add1~46_combout $end
$var wire 1 5" Add1~44_combout $end
$var wire 1 6" Add1~42_combout $end
$var wire 1 7" Add1~40_combout $end
$var wire 1 8" Add0~37 $end
$var wire 1 9" Add0~39 $end
$var wire 1 :" Add0~40_combout $end
$var wire 1 ;" top[20]~23_combout $end
$var wire 1 <" Add0~41 $end
$var wire 1 =" Add0~42_combout $end
$var wire 1 >" top[21]~24_combout $end
$var wire 1 ?" Add0~43 $end
$var wire 1 @" Add0~44_combout $end
$var wire 1 A" top[22]~25_combout $end
$var wire 1 B" Add0~45 $end
$var wire 1 C" Add0~46_combout $end
$var wire 1 D" top[23]~26_combout $end
$var wire 1 E" Add0~47 $end
$var wire 1 F" Add0~48_combout $end
$var wire 1 G" Add1~47 $end
$var wire 1 H" Add1~48_combout $end
$var wire 1 I" top[24]~27_combout $end
$var wire 1 J" Add1~49 $end
$var wire 1 K" Add1~50_combout $end
$var wire 1 L" Add0~49 $end
$var wire 1 M" Add0~50_combout $end
$var wire 1 N" top[25]~28_combout $end
$var wire 1 O" Add0~51 $end
$var wire 1 P" Add0~52_combout $end
$var wire 1 Q" Add1~51 $end
$var wire 1 R" Add1~52_combout $end
$var wire 1 S" top[26]~29_combout $end
$var wire 1 T" Add0~53 $end
$var wire 1 U" Add0~54_combout $end
$var wire 1 V" top[27]~30_combout $end
$var wire 1 W" LessThan1~7_combout $end
$var wire 1 X" Add1~53 $end
$var wire 1 Y" Add1~55 $end
$var wire 1 Z" Add1~56_combout $end
$var wire 1 [" Add0~55 $end
$var wire 1 \" Add0~56_combout $end
$var wire 1 ]" top[28]~31_combout $end
$var wire 1 ^" Add1~57 $end
$var wire 1 _" Add1~58_combout $end
$var wire 1 `" Add0~57 $end
$var wire 1 a" Add0~58_combout $end
$var wire 1 b" top[29]~32_combout $end
$var wire 1 c" LessThan1~8_combout $end
$var wire 1 d" Add0~38_combout $end
$var wire 1 e" Add1~38_combout $end
$var wire 1 f" top[19]~22_combout $end
$var wire 1 g" LessThan1~5_combout $end
$var wire 1 h" LessThan1~1_combout $end
$var wire 1 i" LessThan1~3_combout $end
$var wire 1 j" LessThan1~0_combout $end
$var wire 1 k" LessThan1~4_combout $end
$var wire 1 l" LessThan1~9_combout $end
$var wire 1 m" Add1~59 $end
$var wire 1 n" Add1~61 $end
$var wire 1 o" Add1~62_combout $end
$var wire 1 p" top[31]~5_combout $end
$var wire 1 q" Add0~59 $end
$var wire 1 r" Add0~61 $end
$var wire 1 s" Add0~62_combout $end
$var wire 1 t" top[31]~6_combout $end
$var wire 1 u" stack~245_combout $end
$var wire 1 v" stack~246_combout $end
$var wire 1 w" stack~117_regout $end
$var wire 1 x" stack~251_combout $end
$var wire 1 y" stack~252_combout $end
$var wire 1 z" stack~133_regout $end
$var wire 1 {" stack~249_combout $end
$var wire 1 |" stack~250_combout $end
$var wire 1 }" stack~109_regout $end
$var wire 1 ~" stack~247_combout $end
$var wire 1 !# stack~248_combout $end
$var wire 1 "# stack~125_regout $end
$var wire 1 ## stack~148_combout $end
$var wire 1 $# stack~149_combout $end
$var wire 1 %# stack~227_combout $end
$var wire 1 &# push~combout $end
$var wire 1 '# stack~228_combout $end
$var wire 1 (# stack~101_regout $end
$var wire 1 )# stack~223_combout $end
$var wire 1 *# stack~224_combout $end
$var wire 1 +# stack~85_regout $end
$var wire 1 ,# stack~225_combout $end
$var wire 1 -# stack~226_combout $end
$var wire 1 .# stack~77_regout $end
$var wire 1 /# stack~141_combout $end
$var wire 1 0# stack~142_combout $end
$var wire 1 1# stack~243_combout $end
$var wire 1 2# stack~244_combout $end
$var wire 1 3# stack~37_regout $end
$var wire 1 4# stack~239_combout $end
$var wire 1 5# stack~240_combout $end
$var wire 1 6# stack~21_regout $end
$var wire 1 7# stack~242_combout $end
$var wire 1 8# stack~13_regout $end
$var wire 1 9# stack~145_combout $end
$var wire 1 :# stack~146_combout $end
$var wire 1 ;# stack~229_combout $end
$var wire 1 <# stack~230_combout $end
$var wire 1 =# stack~53_regout $end
$var wire 1 ># stack~69feeder_combout $end
$var wire 1 ?# stack~235_combout $end
$var wire 1 @# stack~236_combout $end
$var wire 1 A# stack~69_regout $end
$var wire 1 B# stack~61feeder_combout $end
$var wire 1 C# stack~231_combout $end
$var wire 1 D# stack~232_combout $end
$var wire 1 E# stack~61_regout $end
$var wire 1 F# stack~233_combout $end
$var wire 1 G# stack~234_combout $end
$var wire 1 H# stack~45_regout $end
$var wire 1 I# stack~143_combout $end
$var wire 1 J# stack~144_combout $end
$var wire 1 K# stack~147_combout $end
$var wire 1 L# stack~150_combout $end
$var wire 1 M# pop_value[0]~0_combout $end
$var wire 1 N# pop_value[0]~reg0_regout $end
$var wire 1 O# stack~38_regout $end
$var wire 1 P# stack~70feeder_combout $end
$var wire 1 Q# stack~70_regout $end
$var wire 1 R# stack~158_combout $end
$var wire 1 S# stack~134_regout $end
$var wire 1 T# stack~102feeder_combout $end
$var wire 1 U# stack~102_regout $end
$var wire 1 V# stack~159_combout $end
$var wire 1 W# stack~46feeder_combout $end
$var wire 1 X# stack~46_regout $end
$var wire 1 Y# stack~110_regout $end
$var wire 1 Z# stack~78feeder_combout $end
$var wire 1 [# stack~78_regout $end
$var wire 1 \# stack~14_regout $end
$var wire 1 ]# stack~155_combout $end
$var wire 1 ^# stack~156_combout $end
$var wire 1 _# stack~118_regout $end
$var wire 1 `# stack~86_regout $end
$var wire 1 a# stack~154_combout $end
$var wire 1 b# stack~157_combout $end
$var wire 1 c# stack~160_combout $end
$var wire 1 d# pop_value[1]~reg0_regout $end
$var wire 1 e# stack~55_regout $end
$var wire 1 f# stack~47_regout $end
$var wire 1 g# stack~161_combout $end
$var wire 1 h# stack~71_regout $end
$var wire 1 i# stack~162_combout $end
$var wire 1 j# stack~87feeder_combout $end
$var wire 1 k# stack~87_regout $end
$var wire 1 l# stack~103_regout $end
$var wire 1 m# stack~95feeder_combout $end
$var wire 1 n# stack~221_combout $end
$var wire 1 o# stack~222_combout $end
$var wire 1 p# stack~95_regout $end
$var wire 1 q# stack~79_regout $end
$var wire 1 r# stack~163_combout $end
$var wire 1 s# stack~164_combout $end
$var wire 1 t# stack~167_combout $end
$var wire 1 u# stack~135_regout $end
$var wire 1 v# stack~119_regout $end
$var wire 1 w# stack~111_regout $end
$var wire 1 x# stack~168_combout $end
$var wire 1 y# stack~169_combout $end
$var wire 1 z# stack~170_combout $end
$var wire 1 {# pop_value[2]~reg0_regout $end
$var wire 1 |# stack~72feeder_combout $end
$var wire 1 }# stack~72_regout $end
$var wire 1 ~# stack~136_regout $end
$var wire 1 !$ stack~40_regout $end
$var wire 1 "$ stack~178_combout $end
$var wire 1 #$ stack~179_combout $end
$var wire 1 $$ stack~112feeder_combout $end
$var wire 1 %$ stack~112_regout $end
$var wire 1 &$ stack~80_regout $end
$var wire 1 '$ stack~48_regout $end
$var wire 1 ($ stack~16_regout $end
$var wire 1 )$ stack~175_combout $end
$var wire 1 *$ stack~176_combout $end
$var wire 1 +$ stack~128_regout $end
$var wire 1 ,$ stack~237_combout $end
$var wire 1 -$ stack~238_combout $end
$var wire 1 .$ stack~32_regout $end
$var wire 1 /$ stack~64feeder_combout $end
$var wire 1 0$ stack~64_regout $end
$var wire 1 1$ stack~173_combout $end
$var wire 1 2$ stack~174_combout $end
$var wire 1 3$ stack~177_combout $end
$var wire 1 4$ stack~180_combout $end
$var wire 1 5$ pop_value[3]~reg0_regout $end
$var wire 1 6$ stack~113_regout $end
$var wire 1 7$ stack~188_combout $end
$var wire 1 8$ stack~137_regout $end
$var wire 1 9$ stack~189_combout $end
$var wire 1 :$ stack~105_regout $end
$var wire 1 ;$ stack~89feeder_combout $end
$var wire 1 <$ stack~89_regout $end
$var wire 1 =$ stack~81_regout $end
$var wire 1 >$ stack~181_combout $end
$var wire 1 ?$ stack~182_combout $end
$var wire 1 @$ stack~190_combout $end
$var wire 1 A$ pop_value[4]~reg0_regout $end
$var wire 1 B$ stack~106feeder_combout $end
$var wire 1 C$ stack~106_regout $end
$var wire 1 D$ stack~138_regout $end
$var wire 1 E$ stack~42_regout $end
$var wire 1 F$ stack~198_combout $end
$var wire 1 G$ stack~199_combout $end
$var wire 1 H$ stack~114_regout $end
$var wire 1 I$ stack~82_regout $end
$var wire 1 J$ stack~18_regout $end
$var wire 1 K$ stack~195_combout $end
$var wire 1 L$ stack~196_combout $end
$var wire 1 M$ stack~197_combout $end
$var wire 1 N$ stack~200_combout $end
$var wire 1 O$ pop_value[5]~reg0_regout $end
$var wire 1 P$ stack~27feeder_combout $end
$var wire 1 Q$ stack~27_regout $end
$var wire 1 R$ stack~43_regout $end
$var wire 1 S$ stack~19_regout $end
$var wire 1 T$ stack~35feeder_combout $end
$var wire 1 U$ stack~35_regout $end
$var wire 1 V$ stack~205_combout $end
$var wire 1 W$ stack~206_combout $end
$var wire 1 X$ stack~91feeder_combout $end
$var wire 1 Y$ stack~91_regout $end
$var wire 1 Z$ stack~107_regout $end
$var wire 1 [$ stack~99feeder_combout $end
$var wire 1 \$ stack~99_regout $end
$var wire 1 ]$ stack~83_regout $end
$var wire 1 ^$ stack~203_combout $end
$var wire 1 _$ stack~204_combout $end
$var wire 1 `$ stack~207_combout $end
$var wire 1 a$ stack~67_regout $end
$var wire 1 b$ stack~75_regout $end
$var wire 1 c$ stack~59_regout $end
$var wire 1 d$ stack~51_regout $end
$var wire 1 e$ stack~201_combout $end
$var wire 1 f$ stack~202_combout $end
$var wire 1 g$ stack~139_regout $end
$var wire 1 h$ stack~123_regout $end
$var wire 1 i$ stack~115_regout $end
$var wire 1 j$ stack~208_combout $end
$var wire 1 k$ stack~209_combout $end
$var wire 1 l$ stack~210_combout $end
$var wire 1 m$ pop_value[6]~reg0_regout $end
$var wire 1 n$ stack~44_regout $end
$var wire 1 o$ stack~108feeder_combout $end
$var wire 1 p$ stack~108_regout $end
$var wire 1 q$ stack~218_combout $end
$var wire 1 r$ stack~140_regout $end
$var wire 1 s$ stack~219_combout $end
$var wire 1 t$ stack~28_regout $end
$var wire 1 u$ stack~92_regout $end
$var wire 1 v$ stack~211_combout $end
$var wire 1 w$ stack~124_regout $end
$var wire 1 x$ stack~212_combout $end
$var wire 1 y$ stack~100_regout $end
$var wire 1 z$ stack~132_regout $end
$var wire 1 {$ stack~36_regout $end
$var wire 1 |$ stack~68feeder_combout $end
$var wire 1 }$ stack~68_regout $end
$var wire 1 ~$ stack~213_combout $end
$var wire 1 !% stack~214_combout $end
$var wire 1 "% stack~52feeder_combout $end
$var wire 1 #% stack~52_regout $end
$var wire 1 $% stack~20_regout $end
$var wire 1 %% stack~215_combout $end
$var wire 1 &% stack~116_regout $end
$var wire 1 '% stack~84feeder_combout $end
$var wire 1 (% stack~84_regout $end
$var wire 1 )% stack~216_combout $end
$var wire 1 *% stack~217_combout $end
$var wire 1 +% stack~220_combout $end
$var wire 1 ,% pop_value[7]~reg0_regout $end
$var wire 1 -% error~0_combout $end
$var wire 1 .% top[31]~_wirecell_combout $end
$var wire 1 /% error~reg0_regout $end
$var wire 1 0% push_value~combout [7] $end
$var wire 1 1% push_value~combout [6] $end
$var wire 1 2% push_value~combout [5] $end
$var wire 1 3% push_value~combout [4] $end
$var wire 1 4% push_value~combout [3] $end
$var wire 1 5% push_value~combout [2] $end
$var wire 1 6% push_value~combout [1] $end
$var wire 1 7% push_value~combout [0] $end
$var wire 1 8% top [31] $end
$var wire 1 9% top [30] $end
$var wire 1 :% top [29] $end
$var wire 1 ;% top [28] $end
$var wire 1 <% top [27] $end
$var wire 1 =% top [26] $end
$var wire 1 >% top [25] $end
$var wire 1 ?% top [24] $end
$var wire 1 @% top [23] $end
$var wire 1 A% top [22] $end
$var wire 1 B% top [21] $end
$var wire 1 C% top [20] $end
$var wire 1 D% top [19] $end
$var wire 1 E% top [18] $end
$var wire 1 F% top [17] $end
$var wire 1 G% top [16] $end
$var wire 1 H% top [15] $end
$var wire 1 I% top [14] $end
$var wire 1 J% top [13] $end
$var wire 1 K% top [12] $end
$var wire 1 L% top [11] $end
$var wire 1 M% top [10] $end
$var wire 1 N% top [9] $end
$var wire 1 O% top [8] $end
$var wire 1 P% top [7] $end
$var wire 1 Q% top [6] $end
$var wire 1 R% top [5] $end
$var wire 1 S% top [4] $end
$var wire 1 T% top [3] $end
$var wire 1 U% top [2] $end
$var wire 1 V% top [1] $end
$var wire 1 W% top [0] $end
$upscope $end
$upscope $end
$enddefinitions $end
#0
$dumpvars
0!
0"
0#
b0 $
0%
0-
0,
0+
0*
0)
0(
0'
0&
x.
0/
10
x1
12
13
14
15
06
07
08
09
0:
0;
0<
0=
1>
0?
0@
0A
0B
1C
0D
0E
0F
0G
1H
0I
0J
0K
0L
0M
0N
1O
0P
0Q
0R
0S
0T
0U
0V
0W
1X
0Y
0Z
0[
0\
0]
1^
0_
0`
1a
0b
0c
0d
0e
0f
1g
0h
0i
0j
0k
0l
1m
0n
0o
0p
0q
0r
0s
0t
0u
0v
1w
1x
0y
0z
0{
0|
0}
0~
0!!
0"!
0#!
0$!
0%!
0&!
0'!
0(!
0)!
0*!
0+!
0,!
0-!
0.!
0/!
00!
01!
12!
03!
14!
15!
16!
07!
18!
09!
0:!
0;!
1<!
1=!
1>!
0?!
1@!
1A!
1B!
0C!
1D!
0E!
1F!
1G!
0H!
0I!
1J!
1K!
1L!
0M!
1N!
1O!
0P!
0Q!
1R!
1S!
1T!
0U!
1V!
0W!
1X!
1Y!
0Z!
0[!
1\!
1]!
1^!
0_!
1`!
0a!
1b!
0c!
0d!
1e!
1f!
1g!
1h!
0i!
1j!
0k!
1l!
0m!
0n!
0o!
0p!
1q!
0r!
1s!
1t!
1u!
1v!
0w!
1x!
1y!
1z!
0{!
0|!
1}!
1~!
0!"
1""
0#"
1$"
1%"
1&"
1'"
1("
0)"
1*"
1+"
0,"
0-"
1."
1/"
00"
11"
02"
13"
04"
05"
06"
07"
18"
09"
1:"
1;"
1<"
1="
1>"
0?"
1@"
1A"
1B"
1C"
1D"
0E"
1F"
0G"
0H"
1I"
1J"
0K"
1L"
1M"
1N"
0O"
1P"
0Q"
0R"
1S"
1T"
1U"
1V"
0W"
1X"
0Y"
0Z"
0["
1\"
1]"
1^"
0_"
1`"
1a"
1b"
0c"
1d"
0e"
1f"
0g"
0h"
0i"
0j"
0k"
0l"
0m"
1n"
0o"
0p"
0q"
1r"
1s"
0t"
0u"
0v"
0w"
0x"
0y"
0z"
0{"
0|"
0}"
0~"
0!#
0"#
1##
0$#
0%#
0&#
0'#
0(#
0)#
0*#
0+#
0,#
0-#
0.#
1/#
00#
01#
02#
03#
04#
05#
06#
07#
08#
19#
0:#
0;#
0<#
0=#
0>#
0?#
0@#
0A#
0B#
0C#
0D#
0E#
0F#
0G#
0H#
1I#
0J#
1K#
0L#
0M#
0N#
0O#
0P#
0Q#
1R#
0S#
0T#
0U#
0V#
0W#
0X#
0Y#
0Z#
0[#
0\#
1]#
0^#
0_#
0`#
0a#
1b#
0c#
0d#
0e#
0f#
1g#
0h#
0i#
0j#
0k#
0l#
0m#
0n#
0o#
0p#
0q#
1r#
0s#
1t#
0u#
0v#
0w#
1x#
0y#
0z#
0{#
0|#
0}#
0~#
0!$
1"$
0#$
0$$
0%$
0&$
0'$
0($
1)$
0*$
0+$
0,$
0-$
0.$
0/$
00$
11$
02$
13$
04$
05$
06$
17$
08$
09$
0:$
0;$
0<$
0=$
1>$
0?$
0@$
0A$
0B$
0C$
0D$
0E$
1F$
0G$
0H$
0I$
0J$
1K$
0L$
1M$
0N$
0O$
0P$
0Q$
0R$
0S$
0T$
0U$
1V$
0W$
0X$
0Y$
0Z$
0[$
0\$
0]$
1^$
0_$
1`$
0a$
0b$
0c$
0d$
1e$
0f$
0g$
0h$
0i$
1j$
0k$
0l$
0m$
0n$
0o$
0p$
1q$
0r$
0s$
0t$
0u$
1v$
0w$
0x$
0y$
0z$
0{$
0|$
0}$
1~$
0!%
0"%
0#%
0$%
1%%
0&%
0'%
0(%
0)%
1*%
0+%
0,%
0-%
1.%
0/%
07%
06%
05%
04%
03%
02%
01%
00%
0W%
0V%
0U%
0T%
0S%
0R%
0Q%
0P%
0O%
0N%
0M%
0L%
0K%
0J%
0I%
0H%
0G%
0F%
0E%
0D%
0C%
0B%
0A%
0@%
0?%
0>%
0=%
0<%
0;%
0:%
09%
08%
$end
#5000
1!
1,!
1-!
0.
#10000
0!
0,!
0-!
1.
#15000
1!
1,!
1-!
0.
#20000
1#
0!
1&#
0,!
0-!
1.
17#
1p"
13!
1t"
#25000
1!
1,!
1-!
0.
18%
1D%
1:%
1;%
1<%
1=%
1>%
1?%
1@%
1A%
1B%
1C%
1E%
1F%
1G%
1H%
1I%
1J%
1K%
1L%
1M%
1N%
1O%
1P%
1Q%
1R%
1S%
1T%
1U%
1V%
1W%
19%
0.%
1-%
07#
0t"
0s"
0p"
1o"
03!
1g"
0d"
10"
1e"
0a"
1m"
1_"
0\"
0^"
1Z"
1W"
0U"
1Y"
17
0X"
1R"
0P"
0M"
1Q"
1K"
0J"
1H"
0F"
0C"
1G"
14"
1v
0@"
03"
15"
0="
12"
16"
0:"
01"
17"
0/"
1-"
0*"
0'"
1,"
16
0$"
0+"
1|!
1i"
0~!
1{!
1!"
0x!
0z!
1n!
0u!
1m!
1o!
0q!
0l!
1r!
1k!
1i!
0g!
1u
0h!
1d!
0b!
1c!
1_!
0Y!
0^!
1[!
0\!
1h"
1Z!
1U!
0G!
0T!
1Q!
0R!
1P!
1M!
0N!
0L!
1I!
0J!
1)%
0%%
1!%
0~$
0v$
0q$
0`$
0K$
1G$
0F$
1@$
12$
01$
1*$
0)$
0"$
0t#
1a#
0]#
1V#
0R#
1L#
0K#
1j"
0A!
1H!
1?!
1o
0m
0g
0a
0O
0C
0>
1x$
1s$
1l$
1L$
1#$
1z#
1^#
0<!
0>!
1:!
1i
1Q
1@
0*%
1k$
0j$
1f$
0e$
0^$
0V$
1N$
0M$
1?$
0>$
07$
03$
1y#
0x#
0r#
1i#
0g#
1c#
0b#
0I#
1:#
09#
10#
0/#
0##
19!
17!
05!
1`
0^
0X
0H
1+%
1_$
1W$
19$
14$
1s#
1J#
1$#
06!
11!
04!
10!
1Z
1J
0n"
18
05
1t"
0f"
07"
0b"
08
0]"
0_"
1c"
0V"
0Z"
07
0S"
0N"
0R"
0K"
0I"
0D"
0H"
0A"
04"
0>"
05"
0;"
06"
0e"
0."
0("
0-"
0%"
06
1k"
0""
0|!
0y!
0!"
0v!
0n!
0s!
0o!
0r!
0j!
0i!
0e!
0d!
0`!
0_!
0]!
0[!
0V!
0U!
0S!
0Q!
0O!
0M!
0K!
1*%
0)%
0!%
0x$
0s$
0l$
0L$
0N$
0G$
13$
02$
0*$
0#$
0z#
1b#
0^#
0c#
0V#
0L#
0B!
0I!
1x"
0w
1M$
0o
0i
0@$
0Q
0a#
0@
0+%
04$
0=!
0?!
0k$
0f$
0_$
0W$
0?$
09$
0y#
0s#
0i#
0J#
1K#
0:#
00#
0$#
0:!
08!
1a
0`
0Z
0J
1`$
1t#
07!
02!
1;!
15!
0o"
0x
1;"
1x
1b"
1l"
1]"
1V"
1S"
1N"
1I"
1D"
1A"
1>"
1f"
1."
1("
1%"
1""
1y!
1v!
1s!
1j!
1e!
1`!
1]!
1V!
1S!
1O!
1+%
0*%
0M$
1N$
14$
03$
1c#
0b#
1K!
14#
0x"
1B!
1l$
0`$
1@$
1z#
0t#
0K#
1L#
1=!
0a
18!
0@!
1<!
0-%
15#
13!
0+%
0N$
04$
0c#
0l$
0z#
0L#
0@$
1C!
1A!
0D!
1J!
1E!
1N!
0F!
1R!
1W!
1G!
0X!
1\!
1a!
1Y!
0f!
1b!
1p!
1g!
0t!
1q!
1w!
1u!
0}!
1x!
1#"
1~!
0&"
1$"
1)"
1'"
08"
1*"
19"
1d"
0<"
1:"
1?"
1="
0B"
1@"
1E"
1C"
0L"
1F"
1O"
1M"
0T"
1P"
1["
1U"
0`"
1\"
1q"
1a"
0r"
15
1s"
#30000
b10000000 $
b11000000 $
b11100000 $
b11110000 $
b11111000 $
b11111100 $
b11111110 $
b11111111 $
0!
17%
16%
15%
14%
13%
12%
11%
10%
0,!
0-!
1.
1B#
1>#
1.!
1Z#
1W#
1T#
1P#
1z
1y
1m#
1j#
1{
1/$
1$$
1|#
1~
1}
1|
1;$
1%!
1$!
1#!
1"!
1!!
1B$
1)!
1(!
1'!
1&!
1[$
1X$
1T$
1P$
1*!
1'%
1"%
1|$
1o$
1+!
#35000
1!
1,!
1-!
0.
1t$
1Q$
16#
0W%
1l
1\
1N
1E
1B
1v$
1W$
19#
16!
01!
14!
00!
1^
1J
1m
1O
1C
1x$
1`$
1:#
17!
04#
12!
1w
0;!
05!
1`
1t#
1o
1Q
1a#
1+%
1l$
1K#
1,$
08!
0w
05#
17#
1@!
0<!
1a
1z#
1M$
14$
1b#
1L#
1-$
07#
0C!
0A!
1@$
1N$
1c#
1D!
0J!
0E!
0N!
1F!
0R!
0W!
0G!
1X!
0\!
0a!
0Y!
1f!
0b!
0p!
0g!
1t!
0q!
0w!
0u!
1}!
0x!
0#"
0~!
1&"
0$"
0)"
0'"
18"
0*"
09"
0d"
1<"
0:"
0?"
0="
1B"
0@"
0E"
0C"
1L"
0F"
0O"
0M"
1T"
0P"
0["
0U"
1`"
0\"
0q"
0a"
1r"
05
0s"
#40000
b1111111 $
b111111 $
0!
01%
00%
0,!
0-!
1.
0[$
0X$
0T$
0P$
0*!
0'%
0"%
0|$
0o$
0+!
