src/stack/simulation/qsim/stack.msim.vcd
$comment
	File created using the following command:
		vcd file stack.msim.vcd -direction
$end
$date
	Wed Aug 15 11:20:36 2018
$end
$version
	ModelSim Version 10.1d
$end
$timescale
	1ps
$end
$scope module stack_vlg_vec_tst $end
$var reg 1 ! clk $end
$var reg 1 " pop $end
$var reg 1 # push $end
$var reg 8 $ push_value [7:0] $end
$var wire 1 % empty $end
$var wire 1 & error $end
$var wire 1 ' full $end
$var wire 1 ( pop_value [7] $end
$var wire 1 ) pop_value [6] $end
$var wire 1 * pop_value [5] $end
$var wire 1 + pop_value [4] $end
$var wire 1 , pop_value [3] $end
$var wire 1 - pop_value [2] $end
$var wire 1 . pop_value [1] $end
$var wire 1 / pop_value [0] $end
$var wire 1 0 sampler $end
$scope module i1 $end
$var wire 1 1 gnd $end
$var wire 1 2 vcc $end
$var wire 1 3 unknown $end
$var tri1 1 4 devclrn $end
$var tri1 1 5 devpor $end
$var tri1 1 6 devoe $end
$var wire 1 7 Add1~60_combout $end
$var wire 1 8 Add0~60_combout $end
$var wire 1 9 stack~19_regout $end
$var wire 1 : stack~20_regout $end
$var wire 1 ; stack~29_regout $end
$var wire 1 < stack~21_regout $end
$var wire 1 = stack~22_regout $end
$var wire 1 > stack~23_regout $end
$var wire 1 ? stack~15_regout $end
$var wire 1 @ stack~51_combout $end
$var wire 1 A stack~24_regout $end
$var wire 1 B stack~32_regout $end
$var wire 1 C stack~25_regout $end
$var wire 1 D stack~26_regout $end
$var wire 1 E pop_value[0]~1_combout $end
$var wire 1 F Equal0~1_combout $end
$var wire 1 G Equal0~9_combout $end
$var wire 1 H stack~60_combout $end
$var wire 1 I top~29_combout $end
$var wire 1 J stack~19feeder_combout $end
$var wire 1 K stack~20feeder_combout $end
$var wire 1 L stack~21feeder_combout $end
$var wire 1 M stack~29feeder_combout $end
$var wire 1 N stack~22feeder_combout $end
$var wire 1 O stack~32feeder_combout $end
$var wire 1 P stack~24feeder_combout $end
$var wire 1 Q stack~25feeder_combout $end
$var wire 1 R clk~combout $end
$var wire 1 S clk~clkctrl_outclk $end
$var wire 1 T stack~35feeder_combout $end
$var wire 1 U push~combout $end
$var wire 1 V Add1~0_combout $end
$var wire 1 W top~2_combout $end
$var wire 1 X Add0~1 $end
$var wire 1 Y Add0~3 $end
$var wire 1 Z Add0~5 $end
$var wire 1 [ Add0~7 $end
$var wire 1 \ Add0~9 $end
$var wire 1 ] Add0~10_combout $end
$var wire 1 ^ Add1~1 $end
$var wire 1 _ Add1~2_combout $end
$var wire 1 ` Add0~2_combout $end
$var wire 1 a top~0_combout $end
$var wire 1 b Add1~3 $end
$var wire 1 c Add1~4_combout $end
$var wire 1 d Add0~4_combout $end
$var wire 1 e top~5_combout $end
$var wire 1 f Add1~5 $end
$var wire 1 g Add1~6_combout $end
$var wire 1 h Add0~6_combout $end
$var wire 1 i top~6_combout $end
$var wire 1 j Add1~7 $end
$var wire 1 k Add1~9 $end
$var wire 1 l Add1~10_combout $end
$var wire 1 m top~8_combout $end
$var wire 1 n Add1~11 $end
$var wire 1 o Add1~12_combout $end
$var wire 1 p Add0~11 $end
$var wire 1 q Add0~12_combout $end
$var wire 1 r top~9_combout $end
$var wire 1 s Add1~13 $end
$var wire 1 t Add1~14_combout $end
$var wire 1 u Add0~13 $end
$var wire 1 v Add0~14_combout $end
$var wire 1 w top~10_combout $end
$var wire 1 x Add1~15 $end
$var wire 1 y Add1~17 $end
$var wire 1 z Add1~18_combout $end
$var wire 1 { Add0~15 $end
$var wire 1 | Add0~16_combout $end
$var wire 1 } Add1~16_combout $end
$var wire 1 ~ top~11_combout $end
$var wire 1 !! Add0~17 $end
$var wire 1 "! Add0~18_combout $end
$var wire 1 #! top~12_combout $end
$var wire 1 $! Add1~19 $end
$var wire 1 %! Add1~21 $end
$var wire 1 &! Add1~23 $end
$var wire 1 '! Add1~24_combout $end
$var wire 1 (! Add1~22_combout $end
$var wire 1 )! Add1~20_combout $end
$var wire 1 *! Add0~19 $end
$var wire 1 +! Add0~20_combout $end
$var wire 1 ,! top~13_combout $end
$var wire 1 -! Add0~21 $end
$var wire 1 .! Add0~22_combout $end
$var wire 1 /! top~14_combout $end
$var wire 1 0! Add0~23 $end
$var wire 1 1! Add0~24_combout $end
$var wire 1 2! top~15_combout $end
$var wire 1 3! Add0~25 $end
$var wire 1 4! Add0~26_combout $end
$var wire 1 5! Add1~25 $end
$var wire 1 6! Add1~26_combout $end
$var wire 1 7! top~16_combout $end
$var wire 1 8! Add0~27 $end
$var wire 1 9! Add0~29 $end
$var wire 1 :! Add0~30_combout $end
$var wire 1 ;! Add1~27 $end
$var wire 1 <! Add1~29 $end
$var wire 1 =! Add1~30_combout $end
$var wire 1 >! top~18_combout $end
$var wire 1 ?! Add0~31 $end
$var wire 1 @! Add0~32_combout $end
$var wire 1 A! Add1~31 $end
$var wire 1 B! Add1~32_combout $end
$var wire 1 C! top~19_combout $end
$var wire 1 D! Add1~33 $end
$var wire 1 E! Add1~34_combout $end
$var wire 1 F! Add0~33 $end
$var wire 1 G! Add0~34_combout $end
$var wire 1 H! top~20_combout $end
$var wire 1 I! Add0~35 $end
$var wire 1 J! Add0~37 $end
$var wire 1 K! Add0~38_combout $end
$var wire 1 L! Add1~35 $end
$var wire 1 M! Add1~36_combout $end
$var wire 1 N! Add0~36_combout $end
$var wire 1 O! top~21_combout $end
$var wire 1 P! Add1~37 $end
$var wire 1 Q! Add1~38_combout $end
$var wire 1 R! top~22_combout $end
$var wire 1 S! Add0~39 $end
$var wire 1 T! Add0~41 $end
$var wire 1 U! Add0~42_combout $end
$var wire 1 V! Add0~40_combout $end
$var wire 1 W! Add1~39 $end
$var wire 1 X! Add1~40_combout $end
$var wire 1 Y! top~23_combout $end
$var wire 1 Z! Add1~41 $end
$var wire 1 [! Add1~42_combout $end
$var wire 1 \! top~24_combout $end
$var wire 1 ]! Add0~43 $end
$var wire 1 ^! Add0~45 $end
$var wire 1 _! Add0~46_combout $end
$var wire 1 `! Add1~43 $end
$var wire 1 a! Add1~45 $end
$var wire 1 b! Add1~46_combout $end
$var wire 1 c! top~26_combout $end
$var wire 1 d! Add1~47 $end
$var wire 1 e! Add1~49 $end
$var wire 1 f! Add1~50_combout $end
$var wire 1 g! Add0~47 $end
$var wire 1 h! Add0~48_combout $end
$var wire 1 i! Add1~48_combout $end
$var wire 1 j! top~27_combout $end
$var wire 1 k! Add0~49 $end
$var wire 1 l! Add0~50_combout $end
$var wire 1 m! top~28_combout $end
$var wire 1 n! Add0~44_combout $end
$var wire 1 o! Add1~44_combout $end
$var wire 1 p! top~25_combout $end
$var wire 1 q! Equal0~6_combout $end
$var wire 1 r! Equal0~5_combout $end
$var wire 1 s! Add1~51 $end
$var wire 1 t! Add1~52_combout $end
$var wire 1 u! Add0~51 $end
$var wire 1 v! Add0~52_combout $end
$var wire 1 w! top~30_combout $end
$var wire 1 x! Add1~53 $end
$var wire 1 y! Add1~55 $end
$var wire 1 z! Add1~56_combout $end
$var wire 1 {! Add1~54_combout $end
$var wire 1 |! Add0~53 $end
$var wire 1 }! Add0~54_combout $end
$var wire 1 ~! top~31_combout $end
$var wire 1 !" Add0~55 $end
$var wire 1 "" Add0~56_combout $end
$var wire 1 #" top~32_combout $end
$var wire 1 $" Add0~57 $end
$var wire 1 %" Add0~58_combout $end
$var wire 1 &" Add1~57 $end
$var wire 1 '" Add1~58_combout $end
$var wire 1 (" top~33_combout $end
$var wire 1 )" Equal0~7_combout $end
$var wire 1 *" Equal0~8_combout $end
$var wire 1 +" LessThan0~0_combout $end
$var wire 1 ," Add0~8_combout $end
$var wire 1 -" Add1~8_combout $end
$var wire 1 ." top~7_combout $end
$var wire 1 /" Equal0~0_combout $end
$var wire 1 0" Add1~28_combout $end
$var wire 1 1" Add0~28_combout $end
$var wire 1 2" top~17_combout $end
$var wire 1 3" Equal0~3_combout $end
$var wire 1 4" Equal0~2_combout $end
$var wire 1 5" Equal0~4_combout $end
$var wire 1 6" LessThan0~1_combout $end
$var wire 1 7" pop~combout $end
$var wire 1 8" top[17]~1_combout $end
$var wire 1 9" Add0~0_combout $end
$var wire 1 :" stack~62_combout $end
$var wire 1 ;" stack~35_regout $end
$var wire 1 <" stack~27feeder_combout $end
$var wire 1 =" stack~59_combout $end
$var wire 1 >" stack~27_regout $end
$var wire 1 ?" stack~61_combout $end
$var wire 1 @" stack~11_regout $end
$var wire 1 A" stack~43_combout $end
$var wire 1 B" stack~44_combout $end
$var wire 1 C" Add0~59 $end
$var wire 1 D" Add0~61 $end
$var wire 1 E" Add0~62_combout $end
$var wire 1 F" Add1~59 $end
$var wire 1 G" Add1~61 $end
$var wire 1 H" Add1~62_combout $end
$var wire 1 I" top~3_combout $end
$var wire 1 J" top~4_combout $end
$var wire 1 K" pop_value[0]~0_combout $end
$var wire 1 L" pop_value[0]~reg0_regout $end
$var wire 1 M" stack~36feeder_combout $end
$var wire 1 N" stack~36_regout $end
$var wire 1 O" stack~28feeder_combout $end
$var wire 1 P" stack~28_regout $end
$var wire 1 Q" stack~12_regout $end
$var wire 1 R" stack~45_combout $end
$var wire 1 S" stack~46_combout $end
$var wire 1 T" pop_value[1]~reg0_regout $end
$var wire 1 U" stack~13_regout $end
$var wire 1 V" stack~47_combout $end
$var wire 1 W" stack~37feeder_combout $end
$var wire 1 X" stack~37_regout $end
$var wire 1 Y" stack~48_combout $end
$var wire 1 Z" pop_value[2]~reg0_regout $end
$var wire 1 [" stack~38feeder_combout $end
$var wire 1 \" stack~38_regout $end
$var wire 1 ]" stack~30_regout $end
$var wire 1 ^" stack~14_regout $end
$var wire 1 _" stack~49_combout $end
$var wire 1 `" stack~50_combout $end
$var wire 1 a" pop_value[3]~reg0_regout $end
$var wire 1 b" stack~31_regout $end
$var wire 1 c" stack~39feeder_combout $end
$var wire 1 d" stack~39_regout $end
$var wire 1 e" stack~52_combout $end
$var wire 1 f" pop_value[4]~reg0_regout $end
$var wire 1 g" stack~40_regout $end
$var wire 1 h" stack~16_regout $end
$var wire 1 i" stack~53_combout $end
$var wire 1 j" stack~54_combout $end
$var wire 1 k" pop_value[5]~reg0_regout $end
$var wire 1 l" stack~33feeder_combout $end
$var wire 1 m" stack~33_regout $end
$var wire 1 n" stack~41feeder_combout $end
$var wire 1 o" stack~41_regout $end
$var wire 1 p" stack~17_regout $end
$var wire 1 q" stack~55_combout $end
$var wire 1 r" stack~56_combout $end
$var wire 1 s" pop_value[6]~reg0_regout $end
$var wire 1 t" stack~34_regout $end
$var wire 1 u" stack~18_regout $end
$var wire 1 v" stack~57_combout $end
$var wire 1 w" stack~42feeder_combout $end
$var wire 1 x" stack~42_regout $end
$var wire 1 y" stack~58_combout $end
$var wire 1 z" pop_value[7]~reg0_regout $end
$var wire 1 {" empty~1_combout $end
$var wire 1 |" empty~2_combout $end
$var wire 1 }" empty~0_combout $end
$var wire 1 ~" empty~3_combout $end
$var wire 1 !# empty~reg0_regout $end
$var wire 1 "# full~0_combout $end
$var wire 1 ## full~reg0_regout $end
$var wire 1 $# error~0_combout $end
$var wire 1 %# error~reg0_regout $end
$var wire 1 &# top [31] $end
$var wire 1 '# top [30] $end
$var wire 1 (# top [29] $end
$var wire 1 )# top [28] $end
$var wire 1 *# top [27] $end
$var wire 1 +# top [26] $end
$var wire 1 ,# top [25] $end
$var wire 1 -# top [24] $end
$var wire 1 .# top [23] $end
$var wire 1 /# top [22] $end
$var wire 1 0# top [21] $end
$var wire 1 1# top [20] $end
$var wire 1 2# top [19] $end
$var wire 1 3# top [18] $end
$var wire 1 4# top [17] $end
$var wire 1 5# top [16] $end
$var wire 1 6# top [15] $end
$var wire 1 7# top [14] $end
$var wire 1 8# top [13] $end
$var wire 1 9# top [12] $end
$var wire 1 :# top [11] $end
$var wire 1 ;# top [10] $end
$var wire 1 <# top [9] $end
$var wire 1 =# top [8] $end
$var wire 1 ># top [7] $end
$var wire 1 ?# top [6] $end
$var wire 1 @# top [5] $end
$var wire 1 A# top [4] $end
$var wire 1 B# top [3] $end
$var wire 1 C# top [2] $end
$var wire 1 D# top [1] $end
$var wire 1 E# top [0] $end
$var wire 1 F# push_value~combout [7] $end
$var wire 1 G# push_value~combout [6] $end
$var wire 1 H# push_value~combout [5] $end
$var wire 1 I# push_value~combout [4] $end
$var wire 1 J# push_value~combout [3] $end
$var wire 1 K# push_value~combout [2] $end
$var wire 1 L# push_value~combout [1] $end
$var wire 1 M# push_value~combout [0] $end
$upscope $end
$upscope $end
$enddefinitions $end
#0
$dumpvars
0!
0"
0#
b0 $
1%
0&
0'
0/
0.
0-
0,
0+
0*
0)
0(
x0
01
12
x3
14
15
16
17
08
09
0:
0;
0<
0=
0>
0?
1@
0A
0B
0C
0D
0E
0F
0G
0H
0I
0J
0K
0L
0M
0N
0O
0P
0Q
0R
0S
0T
0U
0V
1W
1X
0Y
1Z
0[
1\
0]
1^
1_
0`
0a
0b
1c
0d
0e
1f
1g
0h
0i
0j
1k
1l
0m
0n
1o
0p
0q
0r
1s
1t
1u
0v
0w
0x
1y
1z
0{
0|
1}
0~
1!!
0"!
0#!
0$!
1%!
0&!
1'!
1(!
1)!
0*!
0+!
0,!
1-!
0.!
0/!
00!
01!
02!
13!
04!
15!
16!
07!
08!
19!
0:!
0;!
1<!
1=!
0>!
0?!
0@!
0A!
1B!
0C!
1D!
1E!
1F!
0G!
0H!
0I!
1J!
0K!
0L!
1M!
0N!
0O!
1P!
1Q!
0R!
0S!
1T!
0U!
0V!
0W!
1X!
0Y!
1Z!
1[!
0\!
0]!
1^!
0_!
0`!
1a!
1b!
0c!
0d!
1e!
1f!
0g!
0h!
1i!
0j!
1k!
0l!
0m!
0n!
1o!
0p!
0q!
0r!
0s!
1t!
0u!
0v!
0w!
1x!
0y!
1z!
1{!
1|!
0}!
0~!
0!"
0""
0#"
1$"
0%"
1&"
1'"
0("
0)"
0*"
0+"
0,"
1-"
0."
0/"
10"
01"
02"
03"
04"
05"
06"
07"
08"
09"
0:"
0;"
0<"
0="
0>"
0?"
0@"
1A"
0B"
0C"
1D"
0E"
0F"
1G"
1H"
1I"
0J"
0K"
0L"
0M"
0N"
0O"
0P"
0Q"
1R"
0S"
0T"
0U"
1V"
0W"
0X"
0Y"
0Z"
0["
0\"
0]"
0^"
1_"
0`"
0a"
0b"
0c"
0d"
0e"
0f"
0g"
0h"
1i"
0j"
0k"
0l"
0m"
0n"
0o"
0p"
1q"
0r"
0s"
0t"
0u"
1v"
0w"
0x"
0y"
0z"
0{"
0|"
0}"
0~"
0!#
0"#
0##
0$#
0%#
0E#
0D#
0C#
0B#
0A#
0@#
0?#
0>#
0=#
0<#
0;#
0:#
09#
08#
07#
06#
05#
04#
03#
02#
01#
00#
0/#
0.#
0-#
0,#
0+#
0*#
0)#
0(#
0'#
0&#
0M#
0L#
0K#
0J#
0I#
0H#
0G#
0F#
$end
#5000
1!
1R
1S
00
#10000
0!
0R
0S
10
#15000
1!
1R
1S
00
#20000
1#
0!
1U
0R
0S
10
1|"
0I"
1?"
18"
12"
1."
1("
1#"
1~!
1w!
1p!
1m!
1j!
1c!
1\!
1Y!
1R!
1O!
1H!
1C!
1>!
17!
12!
1/!
1,!
1#!
1~
1w
1r
1m
1i
1e
1a
1I
1~"
1J"
#25000
1!
1R
1S
00
1!#
1&#
1E#
17#
1A#
1(#
1)#
1*#
1+#
1/#
1,#
1-#
1.#
10#
11#
12#
13#
14#
15#
16#
18#
19#
1:#
1;#
1<#
1=#
1>#
1?#
1@#
1B#
1C#
1D#
1'#
0|"
0H"
1E"
16"
1y"
0v"
0q"
1j"
0i"
1`"
0_"
0V"
1S"
0R"
0A"
1+"
0X
19"
0^
1V
0@
13"
00"
09!
11"
1/"
0-"
0\
1,"
1)"
0'"
1C"
1%"
0$"
1""
0z!
1!"
1}!
0{!
0|!
1v!
0t!
1q!
0o!
0^!
1n!
1u!
1l!
0f!
0k!
1h!
0i!
0b!
1g!
1_!
1r!
0[!
1]!
1U!
0X!
0T!
1V!
0Q!
1S!
1K!
0M!
0J!
1N!
1I!
1G!
0E!
0B!
0F!
1@!
0=!
1?!
1:!
14"
06!
18!
14!
03!
11!
0'!
10!
1.!
0(!
0-!
1+!
0)!
1*!
1"!
0z
1F
0!!
1|
0}
1{
1v
0t
0u
1q
0o
0l
1p
1]
0g
1[
1h
0c
0Z
1d
1r"
1e"
1Y"
1B"
0_
1Y
1`
0D"
18
07
0%
0?"
08"
0y"
0r"
0j"
0`"
0Y"
0S"
0B"
0`
0W
1b
1_
0e"
15"
02"
0:!
0."
0]
1*"
0("
08
0%"
0#"
0""
0~!
0}!
0w!
0p!
0_!
0v!
0m!
0l!
0j!
0c!
0h!
0\!
0n!
0Y!
0U!
0R!
0V!
0O!
0K!
0N!
0H!
0C!
0G!
0>!
0@!
07!
01"
04!
02!
01!
0/!
0.!
0,!
0+!
0#!
0"!
0~
0|
0w
0v
0r
0m
0q
0i
0,"
0e
0h
0a
0d
0E"
0I
1a
0f
1c
1}"
1{"
06"
1G
1>!
1m
1I
1("
1#"
1~!
1c!
1w!
1m!
1j!
1p!
1\!
1Y!
1R!
1O!
1H!
1C!
12"
17!
12!
1/!
1,!
1#!
1~
1w
1r
1."
1i
1e
1j
1g
1|"
18"
1H
0k
1-"
1n
1l
0s
1o
1x
1t
0y
1}
1$!
1z
0%!
1)!
1&!
1(!
05!
1'!
1;!
16!
0<!
10"
1A!
1=!
0D!
1B!
1L!
1E!
0P!
1M!
1W!
1Q!
0Z!
1X!
1`!
1[!
0a!
1o!
1d!
1b!
0e!
1i!
1s!
1f!
0x!
1t!
1y!
1{!
0&"
1z!
1F"
1'"
0G"
17
1H"
#30000
b10000000 $
b11000000 $
b11100000 $
b11110000 $
b11111000 $
b11111100 $
b11111110 $
b11111111 $
0!
1M#
1L#
1K#
1J#
1I#
1H#
1G#
1F#
0R
0S
10
1<"
1T
1J
1O"
1M"
1K
1W"
1M
1L
1["
1N
1c"
1P
1O
1n"
1l"
1Q
1w"
#35000
1!
1R
1S
00
0E#
1D
1C
1A
1>
1=
1<
1:
19
0}"
1y"
1q"
1j"
1`"
1V"
1S"
1A"
1X
09"
1^
0V
0G
1@
1r"
1Y"
1B"
1`
1?"
1W
0H
0b
0_
1e"
0?"
1="
0a
1f
0c
0j
0g
1k
0-"
0n
0l
1s
0o
0x
0t
1y
0}
0$!
0z
1%!
0)!
0&!
0(!
15!
0'!
0;!
06!
1<!
00"
0A!
0=!
1D!
0B!
0L!
0E!
1P!
0M!
0W!
0Q!
1Z!
0X!
0`!
0[!
1a!
0o!
0d!
0b!
1e!
0i!
0s!
0f!
1x!
0t!
0y!
0{!
1&"
0z!
0F"
0'"
1G"
07
0H"
#40000
b1111111 $
b111111 $
0!
0G#
0F#
0R
0S
10
0n"
0l"
0Q
0w"
#45000
1!
1R
1S
00
1b"
1]"
1P"
1>"
1E#
0D#
1B
1;
0e"
1_"
1R"
0B"
0y"
0q"
0j"
1i"
0`"
0V"
0S"
0A"
0X
19"
0^
1V
1G
0@
0r"
0Y"
1_
0Y
0`
1`"
1S"
1j"
1Y"
1B"
1Y
1`
0="
0W
1H
0_
1"#
1e"
1a
1d
0d
1:"
0a
0H
0e
1e
#50000
b10111111 $
b11111111 $
0!
1G#
1F#
0R
0S
10
1n"
1l"
1Q
1w"
#55000
1!
1R
1S
00
1##
1x"
1o"
1g"
1d"
1\"
1X"
1N"
1;"
0E#
1y"
1v"
1q"
1V"
1A"
0+"
1X
09"
1^
0V
0G
1@
1'
1r"
0{"
16"
0Y
0`
1="
0:"
1W
1_
0|"
0="
08"
1d
1a
0e
#60000
0!
0R
0S
10
#65000
1!
1R
1S
00
1%#
1$#
1&
#70000
0!
0R
0S
10
#75000
1!
1R
1S
00
#80000
0!
0R
0S
10
#85000
1!
1R
1S
00
#90000
0!
0R
0S
10
#95000
1!
1R
1S
00
#100000
b11011111 $
b11001111 $
b11000111 $
0!
0J#
0I#
0H#
0R
0S
10
0["
0N
0c"
0P
0O
#105000
1!
1R
1S
00
#110000
b11100111 $
b11110111 $
b11111111 $
0!
1J#
1I#
1H#
0R
0S
10
1["
1N
1c"
1P
1O
#115000
1!
1R
1S
00
#120000
0!
0R
0S
10
#125000
1!
1R
1S
00
#130000
b11111101 $
b11111100 $
0!
0M#
0L#
0R
0S
10
0<"
0T
0J
0O"
0M"
0K
#135000
1!
1R
1S
00
#140000
0#
b11111110 $
b11111111 $
0!
0U
1M#
1L#
0R
0S
10
1e
0a
1E
1<"
1T
1J
1O"
1M"
1K
#145000
1!
1R
1S
00
#150000
0!
0R
0S
10
#155000
1!
1R
1S
00
#160000
b11111011 $
b1111011 $
b111011 $
b11011 $
b1011 $
b11 $
b1 $
b0 $
0!
0M#
0L#
0K#
0J#
0I#
0H#
0G#
0F#
0R
0S
10
0<"
0T
0J
0O"
0M"
0K
0W"
0M
0L
0["
0N
0c"
0P
0O
0n"
0l"
0Q
0w"
#165000
1!
1R
1S
00
#170000
0!
0R
0S
10
#175000
1!
1R
1S
00
#180000
0!
0R
0S
10
#185000
1!
1R
1S
00
#190000
0!
0R
0S
10
#195000
1!
1R
1S
00
#200000
0!
0R
0S
10
#205000
1!
1R
1S
00
#210000
0!
0R
0S
10
#215000
1!
1R
1S
00
#220000
0!
0R
0S
10
#225000
1!
1R
1S
00
#230000
0!
0R
0S
10
#235000
1!
1R
1S
00
#240000
0!
0R
0S
10
#245000
1!
1R
1S
00
#250000
1"
0!
17"
0R
0S
10
0$#
1|"
1K"
18"
#255000
1!
1R
1S
00
0%#
0##
1z"
1s"
1k"
1f"
1a"
1Z"
1T"
1L"
1E#
0"#
0v"
0q"
0V"
0A"
1+"
0X
19"
0^
1V
1G
0@
0&
0'
1(
1)
1*
1+
1,
1-
1.
1/
0y"
0r"
06"
1Y
1`
0W
0_
1"#
0d
1a
#260000
0!
0R
0S
10
#265000
1!
1R
1S
00
0z"
0s"
0E#
1D#
1y"
1q"
0i"
0_"
1V"
0R"
1A"
1X
09"
1^
0V
0G
1@
0"#
0e"
0Y"
0B"
1b
1_
0`
0(
0)
1r"
1Y"
1B"
1`
1W
0b
0_
1e"
0f
1c
0a
1a
1f
0c
1j
1g
0e
0j
0g
1e
0k
1-"
0i
1k
0-"
1i
1n
1l
0."
0n
0l
1."
0s
1o
0m
1s
0o
1m
1x
1t
0r
0x
0t
1r
0y
1}
0w
1y
0}
1w
1$!
1z
0~
0$!
0z
1~
0%!
1)!
0#!
1%!
0)!
1#!
1&!
1(!
0,!
0&!
0(!
1,!
05!
1'!
0/!
15!
0'!
1/!
1;!
16!
02!
0;!
06!
12!
0<!
10"
07!
1<!
00"
17!
1A!
1=!
02"
0A!
0=!
12"
0D!
1B!
0>!
1D!
0B!
1>!
1L!
1E!
0C!
0L!
0E!
1C!
0P!
1M!
0H!
1P!
0M!
1H!
1W!
1Q!
0O!
0W!
0Q!
1O!
0Z!
1X!
0R!
1Z!
0X!
1R!
1`!
1[!
0Y!
0`!
0[!
1Y!
0a!
1o!
0\!
1a!
0o!
1\!
1d!
1b!
0p!
0d!
0b!
1p!
0e!
1i!
0c!
1e!
0i!
1c!
1s!
1f!
0j!
0s!
0f!
1j!
0x!
1t!
0m!
1x!
0t!
1m!
1y!
1{!
0w!
0y!
0{!
1w!
0&"
1z!
0~!
1&"
0z!
1~!
1F"
1'"
0#"
0F"
0'"
1#"
0G"
17
0("
1G"
07
1("
1H"
0I
0H"
1I
1I"
0I"
0J"
1J"
#270000
0!
0R
0S
10
#275000
1!
1R
1S
00
1z"
1s"
1E#
1}"
0y"
0q"
0j"
0`"
0V"
0S"
0A"
0X
19"
0^
1V
1G
0@
1(
1)
0~"
0r"
0Y"
0B"
0`
0W
1b
1_
0e"
0a
0f
1c
1j
1g
0e
0k
1-"
0i
1n
1l
0."
0s
1o
0m
1x
1t
0r
0y
1}
0w
1$!
1z
0~
0%!
1)!
0#!
1&!
1(!
0,!
05!
1'!
0/!
1;!
16!
02!
0<!
10"
07!
1A!
1=!
02"
0D!
1B!
0>!
1L!
1E!
0C!
0P!
1M!
0H!
1W!
1Q!
0O!
0Z!
1X!
0R!
1`!
1[!
0Y!
0a!
1o!
0\!
1d!
1b!
0p!
0e!
1i!
0c!
1s!
1f!
0j!
0x!
1t!
0m!
1y!
1{!
0w!
0&"
1z!
0~!
1F"
1'"
0#"
0G"
17
0("
1H"
0I
1I"
0J"
#280000
0!
0R
0S
10
#285000
1!
1R
1S
00
0!#
0z"
0s"
0k"
0f"
0a"
0Z"
0T"
0L"
0&#
0E#
07#
0A#
0(#
0)#
0*#
0+#
0/#
0,#
0-#
0.#
00#
01#
02#
03#
04#
05#
06#
08#
09#
0:#
0;#
0<#
0=#
0>#
0?#
0@#
0B#
0C#
0D#
0'#
1$#
0|"
0K"
0H"
1E"
08"
0E
0}"
1y"
1v"
1q"
1j"
1i"
1`"
1_"
1V"
1S"
1R"
1A"
0+"
1X
09"
1^
0V
0G
1@
03"
1<!
00"
11"
0/"
1k
0-"
1,"
0)"
0F"
0'"
1%"
1""
1&"
0z!
1}!
0y!
0{!
1v!
1x!
0t!
0q!
1a!
0o!
1n!
1l!
0s!
0f!
1h!
1e!
0i!
0d!
0b!
1_!
0r!
0`!
0[!
1U!
1Z!
0X!
1V!
0W!
0Q!
1K!
1P!
0M!
1N!
1G!
0L!
0E!
1D!
0B!
1@!
0A!
0=!
1:!
04"
0;!
06!
14!
11!
15!
0'!
1.!
0&!
0(!
1+!
1%!
0)!
1"!
0$!
0z
0F
1|
1y
0}
1v
0x
0t
1q
1s
0o
0n
0l
1]
0j
0g
1h
1f
0c
1d
1e"
1Y"
1B"
0b
0_
1`
0*"
18
1G"
07
0(
0)
0*
0+
0,
0-
0.
0/
1%
1r"
0Y
0`
1W
1_
05"
1=!
12"
1l
1."
17
1("
1#"
1'"
1~!
1z!
1w!
1{!
1b!
1p!
1m!
1t!
1j!
1f!
1i!
1c!
1o!
1\!
1[!
1Y!
1X!
1R!
1Q!
1O!
1H!
1M!
1E!
1C!
1B!
1>!
10"
17!
12!
16!
1/!
1'!
1,!
1(!
1#!
1)!
1~
1z
1w
1}
1r
1t
1o
1m
1-"
1i
1g
1e
1c
1a
1I
1H"
1Z
0d
0a
0>!
0m
0I
0("
0#"
0~!
0c!
0w!
0m!
0j!
0p!
0\!
0Y!
0R!
0O!
0H!
0C!
02"
07!
02!
0/!
0,!
0#!
0~
0w
0r
0."
0i
0e
0[
0h
1\
0,"
0p
0]
1u
0q
0{
0v
1!!
0|
0*!
0"!
1-!
0+!
00!
0.!
13!
01!
08!
04!
19!
01"
0?!
0:!
1F!
0@!
0I!
0G!
1J!
0N!
0S!
0K!
1T!
0V!
0]!
0U!
1^!
0n!
0g!
0_!
1k!
0h!
0u!
0l!
1|!
0v!
0!"
0}!
1$"
0""
0C"
0%"
1D"
08
0E"
#290000
0!
0R
0S
10
#295000
1!
1R
1S
00
1%#
1&
#300000
0!
0R
0S
10
#305000
1!
1R
1S
00
#310000
0!
0R
0S
10
#315000
1!
1R
1S
00
#320000
0"
0!
07"
0R
0S
10
#325000
1!
1R
1S
00
#330000
0!
0R
0S
10
#335000
1!
1R
1S
00
#340000
0!
0R
0S
10
#345000
1!
1R
1S
00
#350000
0!
0R
0S
10
#355000
1!
1R
1S
00
#360000
0!
0R
0S
10
#365000
1!
1R
1S
00
#370000
0!
0R
0S
10
#375000
1!
1R
1S
00
#380000
0!
0R
0S
10
#385000
1!
1R
1S
00
#390000
0!
0R
0S
10
#395000
1!
1R
1S
00
#400000
0!
0R
0S
10
#405000
1!
1R
1S
00
#410000
0!
0R
0S
10
#415000
1!
1R
1S
00
#420000
0!
0R
0S
10
#425000
1!
1R
1S
00
#430000
0!
0R
0S
10
#435000
1!
1R
1S
00
#440000
0!
0R
0S
10
#445000
1!
1R
1S
00
#450000
0!
0R
0S
10
#455000
1!
1R
1S
00
#460000
0!
0R
0S
10
#465000
1!
1R
1S
00
#470000
0!
0R
0S
10
#475000
1!
1R
1S
00
#480000
0!
0R
0S
10
#485000
1!
1R
1S
00
#490000
0!
0R
0S
10
#495000
1!
1R
1S
00
#500000
0!
0R
0S
10
#505000
1!
1R
1S
00
#510000
0!
0R
0S
10
#515000
1!
1R
1S
00
#520000
0!
0R
0S
10
#525000
1!
1R
1S
00
#530000
0!
0R
0S
10
#535000
1!
1R
1S
00
#540000
0!
0R
0S
10
#545000
1!
1R
1S
00
#550000
0!
0R
0S
10
#555000
1!
1R
1S
00
#560000
0!
0R
0S
10
#565000
1!
1R
1S
00
#570000
0!
0R
0S
10
#575000
1!
1R
1S
00
#580000
0!
0R
0S
10
#585000
1!
1R
1S
00
#590000
0!
0R
0S
10
#595000
1!
1R
1S
00
#600000
0!
0R
0S
10
#605000
1!
1R
1S
00
#610000
0!
0R
0S
10
#615000
1!
1R
1S
00
#620000
0!
0R
0S
10
#625000
1!
1R
1S
00
#630000
0!
0R
0S
10
#635000
1!
1R
1S
00
#640000
0!
0R
0S
10
#645000
1!
1R
1S
00
#650000
0!
0R
0S
10
#655000
1!
1R
1S
00
#660000
0!
0R
0S
10
#665000
1!
1R
1S
00
#670000
0!
0R
0S
10
#675000
1!
1R
1S
00
#680000
0!
0R
0S
10
#685000
1!
1R
1S
00
#690000
0!
0R
0S
10
#695000
1!
1R
1S
00
#700000
0!
0R
0S
10
#705000
1!
1R
1S
00
#710000
0!
0R
0S
10
#715000
1!
1R
1S
00
#720000
0!
0R
0S
10
#725000
1!
1R
1S
00
#730000
0!
0R
0S
10
#735000
1!
1R
1S
00
#740000
0!
0R
0S
10
#745000
1!
1R
1S
00
#750000
0!
0R
0S
10
#755000
1!
1R
1S
00
#760000
0!
0R
0S
10
