src/controller/simulation/qsim/controller.msim.vcd
$comment
	File created using the following command:
		vcd file controller.msim.vcd -direction
$end
$date
	Thu Aug 16 23:44:00 2018
$end
$version
	ModelSim Version 10.1d
$end
$timescale
	1ps
$end
$scope module controller_vlg_vec_tst $end
$var reg 1 ! clk $end
$var reg 8 " operand [7:0] $end
$var reg 2 # operator [1:0] $end
$var reg 1 $ reset $end
$var reg 8 % result [7:0] $end
$var reg 1 & set_operand $end
$var reg 1 ' set_operator $end
$var wire 1 ( stack_pop $end
$var wire 1 ) stack_push $end
$var wire 1 * stack_push_value [7] $end
$var wire 1 + stack_push_value [6] $end
$var wire 1 , stack_push_value [5] $end
$var wire 1 - stack_push_value [4] $end
$var wire 1 . stack_push_value [3] $end
$var wire 1 / stack_push_value [2] $end
$var wire 1 0 stack_push_value [1] $end
$var wire 1 1 stack_push_value [0] $end
$var wire 1 2 sampler $end
$scope module i1 $end
$var wire 1 3 gnd $end
$var wire 1 4 vcc $end
$var wire 1 5 unknown $end
$var tri1 1 6 devclrn $end
$var tri1 1 7 devpor $end
$var tri1 1 8 devoe $end
$var wire 1 9 clk~combout $end
$var wire 1 : clk~clkctrl_outclk $end
$var wire 1 ; set_operator~combout $end
$var wire 1 < Selector0~0_combout $end
$var wire 1 = reset~combout $end
$var wire 1 > reset~clkctrl_outclk $end
$var wire 1 ? state.START~regout $end
$var wire 1 @ Selector1~0_combout $end
$var wire 1 A state.S1~regout $end
$var wire 1 B set_operand~combout $end
$var wire 1 C Selector2~0_combout $end
$var wire 1 D stack_pop~0_combout $end
$var wire 1 E Selector3~0_combout $end
$var wire 1 F Selector2~1_combout $end
$var wire 1 G Selector10~0_combout $end
$var wire 1 H Selector9~0_combout $end
$var wire 1 I Selector8~0_combout $end
$var wire 1 J Selector7~0_combout $end
$var wire 1 K Selector6~0_combout $end
$var wire 1 L Selector5~0_combout $end
$var wire 1 M Selector4~0_combout $end
$var wire 1 N Selector3~1_combout $end
$var wire 1 O result~combout [7] $end
$var wire 1 P result~combout [6] $end
$var wire 1 Q result~combout [5] $end
$var wire 1 R result~combout [4] $end
$var wire 1 S result~combout [3] $end
$var wire 1 T result~combout [2] $end
$var wire 1 U result~combout [1] $end
$var wire 1 V result~combout [0] $end
$var wire 1 W operand~combout [7] $end
$var wire 1 X operand~combout [6] $end
$var wire 1 Y operand~combout [5] $end
$var wire 1 Z operand~combout [4] $end
$var wire 1 [ operand~combout [3] $end
$var wire 1 \ operand~combout [2] $end
$var wire 1 ] operand~combout [1] $end
$var wire 1 ^ operand~combout [0] $end
$upscope $end
$upscope $end
$enddefinitions $end
#0
$dumpvars
0!
b1100 "
b0 #
0$
b100010 %
0&
0'
0(
0)
01
00
0/
0.
0-
0,
0+
0*
x2
03
14
x5
16
17
18
09
0:
0;
0<
0=
0>
0?
0@
0A
0B
0C
0D
0E
0F
0G
0H
0I
0J
0K
0L
0M
0N
0V
1U
0T
0S
0R
1Q
0P
0O
0^
0]
1\
1[
0Z
0Y
0X
0W
$end
#5000
1!
19
1:
02
#10000
0!
09
0:
12
#15000
1!
19
1:
02
#20000
1&
b100 "
b0 "
b10 "
b1100010 %
b1000010 %
b1001010 %
b1001011 %
0!
1B
1V
1S
0Q
1P
1]
0\
0[
09
0:
12
1E
1C
1<
1H
1)
10
#25000
1!
19
1:
02
1?
0E
0C
0H
0)
00
#30000
0&
0!
0B
09
0:
12
0<
#35000
1!
19
1:
02
0?
#40000
b10010 "
b10011 "
b11001011 %
b11011011 %
b11011111 %
b10011111 %
b10111111 %
b10111110 %
0!
0V
1T
1R
1Q
0P
1O
1^
1Z
09
0:
12
#45000
1!
19
1:
02
#50000
1&
0!
1B
09
0:
12
1E
1C
1<
1K
1H
1G
1)
1-
10
11
#55000
1!
19
1:
02
1?
0E
0C
0K
0H
0G
0)
0-
00
01
#60000
b11 "
b10 "
b10101110 %
b11101110 %
b11101111 %
0&
0!
1V
0R
1P
0^
0Z
0B
09
0:
12
0<
#65000
1!
19
1:
02
0?
#70000
0!
09
0:
12
#75000
1!
19
1:
02
#80000
b1010 "
b11100111 %
b11000111 %
b11010 "
b10000111 %
0!
0S
0Q
0P
1[
1Z
09
0:
12
#85000
1!
19
1:
02
#90000
0!
09
0:
12
#95000
1!
19
1:
02
#100000
b10000101 %
b11000 "
b11001 "
b10001101 %
b10101101 %
0!
1^
0]
0U
1S
1Q
09
0:
12
#105000
1!
19
1:
02
#110000
1'
0!
1;
09
0:
12
1D
1@
1<
1(
#115000
1!
19
1:
02
1A
1?
0D
0(
#120000
b10101001 %
b10111001 %
b10111000 %
b1001 "
b10111010 %
b1000 "
b10110010 %
0'
0!
0^
0Z
0V
1U
0T
0S
1R
0;
09
0:
12
1F
1C
0@
0<
1N
1L
1K
1H
1)
1*
1,
1-
10
#125000
1!
19
1:
02
0A
0?
0F
0C
0N
0L
0K
0H
0)
0*
0,
0-
00
#130000
0!
09
0:
12
#135000
1!
19
1:
02
#140000
b1100 "
b11110010 %
b11100 "
b11110000 %
b11101 "
1'
0!
0U
1P
1^
1\
1Z
1;
09
0:
12
1D
1@
1<
1(
#145000
1!
19
1:
02
1A
1?
0D
0(
#150000
0!
09
0:
12
#155000
1!
19
1:
02
#160000
b11111 "
b11100000 %
b11100001 %
b11110 "
0!
1V
0R
0^
1]
09
0:
12
#165000
1!
19
1:
02
#170000
0'
0!
0;
09
0:
12
1F
1C
0@
0<
1N
1M
1L
1G
1)
1*
1+
1,
11
#175000
1!
19
1:
02
0A
0?
0F
0C
0N
0M
0L
0G
0)
0*
0+
0,
01
#180000
b10110 "
b11000001 %
b11000101 %
b11001101 %
b10010 "
b10001101 %
b10 "
b0 "
b10011101 %
b10011100 %
0!
0V
1T
1S
1R
0Q
0P
0]
0\
0[
0Z
09
0:
12
#185000
1!
19
1:
02
#190000
0!
09
0:
12
#195000
1!
19
1:
02
#200000
b1000 "
b10111100 %
b10111000 %
b10110000 %
b11000 "
0!
0T
0S
1Q
1[
1Z
09
0:
12
#205000
1!
19
1:
02
#210000
0!
09
0:
12
#215000
1!
19
1:
02
#220000
b110000 %
b10000 %
b10100 %
0!
1T
0Q
0O
09
0:
12
#225000
1!
19
1:
02
#230000
0!
09
0:
12
#235000
1!
19
1:
02
#240000
b10110 %
b1010110 %
b11010 "
b1000110 %
b10010 "
b11000110 %
0!
1]
0[
1U
0R
1P
1O
09
0:
12
#245000
1!
19
1:
02
#250000
0!
09
0:
12
#255000
1!
19
1:
02
#260000
b10110 "
b110 "
b11000100 %
b11010100 %
b1110 "
b1010100 %
0!
0U
1R
0O
1\
1[
0Z
09
0:
12
#265000
1!
19
1:
02
#270000
0!
09
0:
12
#275000
1!
19
1:
02
#280000
b1111 "
b1010101 %
b1011101 %
b11101 %
b1101 "
b1001 "
b11001 "
b1101 %
b10001 "
0!
1V
1S
0R
0P
1^
0]
0\
0[
1Z
09
0:
12
#285000
1!
19
1:
02
#290000
0!
09
0:
12
#295000
1!
19
1:
02
#300000
b101101 %
b10000 "
b101100 %
b100100 %
b1100100 %
b10010 "
b10 "
b1110100 %
b1010 "
0!
0^
1]
1[
0Z
0V
0S
1R
1Q
1P
09
0:
12
#305000
1!
19
1:
02
#310000
0!
09
0:
12
#315000
1!
19
1:
02
#320000
b1110 "
b1111 "
b1110101 %
b1111101 %
b111101 %
b1101 "
b11101 "
b10101 "
0!
1V
1S
0P
1^
0]
1\
0[
1Z
09
0:
12
#325000
1!
19
1:
02
#330000
0!
09
0:
12
#335000
1!
19
1:
02
#340000
b111001 %
b10111001 %
b10101001 %
b10100 "
b10110 "
b11110 "
0!
0^
1]
1[
0T
0R
1O
09
0:
12
#345000
1!
19
1:
02
#350000
0!
09
0:
12
#355000
1!
19
1:
02
#360000
b10001001 %
b11010 "
b11001001 %
b11001101 %
b11011 "
b11001 "
0!
1^
0]
0\
1T
0Q
1P
09
0:
12
#365000
1!
19
1:
02
#370000
0!
09
0:
12
#375000
1!
19
1:
02
#380000
b11001111 %
b11000111 %
b10001 "
b11100111 %
b10101 "
b10100 "
b10110 "
0!
0^
1]
1\
0[
1U
0S
1Q
09
0:
12
#385000
1!
19
1:
02
#390000
0!
09
0:
12
#395000
1!
19
1:
02
#400000
b11100110 %
b110 "
b1100110 %
b1110110 %
b1111110 %
b1110 "
b1011110 %
b1010 "
b1000 "
0!
0]
0\
1[
0Z
0V
1S
1R
0Q
0O
09
0:
12
#405000
1!
19
1:
02
#410000
0!
09
0:
12
#415000
1!
19
1:
02
#420000
b11000 "
b11011110 %
b11001110 %
b10000 "
b11101110 %
b10100 "
b10110 "
0!
0R
1Q
1O
1]
1\
0[
1Z
09
0:
12
#425000
1!
19
1:
02
#430000
0!
09
0:
12
#435000
1!
19
1:
02
#440000
b10101110 %
b10101111 %
b110 "
b101111 %
b111111 %
b11111 %
b10 "
0!
0\
0Z
1V
1R
0Q
0P
0O
09
0:
12
#445000
1!
19
1:
02
#450000
0!
09
0:
12
#455000
1!
19
1:
02
#460000
b11011 %
b10011 %
b1010 "
b1010011 %
b1010010 %
b11010 "
b11010010 %
b11110 "
0!
1\
1[
1Z
0V
0T
0S
1P
1O
09
0:
12
#465000
1!
19
1:
02
#470000
0!
09
0:
12
#475000
1!
19
1:
02
#480000
b11010000 %
b11100 "
b11000000 %
b11001000 %
b10100 "
b11001001 %
b100 "
b1001001 %
b0 "
0!
0]
0\
0[
0Z
1V
0U
1S
0R
0O
09
0:
12
#485000
1!
19
1:
02
#490000
0!
09
0:
12
#495000
1!
19
1:
02
#500000
b1001101 %
b1001111 %
b1011111 %
b1000 "
b1011110 %
b11000 "
0!
1[
1Z
0V
1U
1T
1R
09
0:
12
#505000
1!
19
1:
02
#510000
0!
09
0:
12
#515000
1!
19
1:
02
#520000
b11110 %
b11010 %
b11000 %
b1000 %
b1001 %
0!
1V
0U
0T
0R
0P
09
0:
12
#525000
1!
19
1:
02
#530000
0!
09
0:
12
#535000
1!
19
1:
02
#540000
b11001 "
b101001 %
b11011 "
b100001 %
b10100001 %
b11111 "
b10111 "
b111 "
0!
0S
1Q
1O
1^
1]
1\
0[
0Z
09
0:
12
#545000
1!
19
1:
02
#550000
0!
09
0:
12
#555000
1!
19
1:
02
#560000
b11100001 %
b11100011 %
b110 "
b11101011 %
b1101011 %
b10 "
0!
0^
0\
1U
1S
1P
0O
09
0:
12
#565000
1!
19
1:
02
#570000
0!
09
0:
12
#575000
1!
19
1:
02
#580000
b1101111 %
b1111111 %
b1011111 %
b10010 "
b11111 %
b11101 %
b10101 %
b10010101 %
b10110 "
0!
1\
1Z
0U
1T
0S
1R
0Q
0P
1O
09
0:
12
#585000
1!
19
1:
02
#590000
0!
09
0:
12
#595000
1!
19
1:
02
#600000
b11110 "
b10000101 %
b10100101 %
b1110 "
b11100101 %
0!
0R
1Q
1P
1[
0Z
09
0:
12
#605000
1!
19
1:
02
#610000
0!
09
0:
12
#615000
1!
19
1:
02
#620000
b1111 "
b11100001 %
b111 "
b11110001 %
b10111 "
0!
0T
1R
1^
0[
1Z
09
0:
12
#625000
1!
19
1:
02
#630000
0!
09
0:
12
#635000
1!
19
1:
02
#640000
b10101 "
b11111001 %
b10001 "
b10000 "
b11111101 %
b11000 "
0!
1T
1S
0^
0]
0\
1[
09
0:
12
#645000
1!
19
1:
02
#650000
0!
09
0:
12
#655000
1!
19
1:
02
#660000
b11111100 %
b11011100 %
b10011100 %
b11010 "
b10010 "
0!
1]
0[
0V
0Q
0P
09
0:
12
#665000
1!
19
1:
02
#670000
0!
09
0:
12
#675000
1!
19
1:
02
#680000
b11100 %
b1100 %
b10 "
b100 %
b110 "
b111 "
b101 %
b100101 %
b101 "
b1101 "
0!
1^
0]
1\
1[
0Z
1V
0S
0R
1Q
0O
09
0:
12
#685000
1!
19
1:
02
#690000
0!
09
0:
12
#695000
1!
19
1:
02
#700000
b100111 %
b100011 %
b10100011 %
b11101 "
b10101011 %
b11100 "
b10101010 %
b10001010 %
b11110 "
0!
0^
1]
1Z
0V
1U
0T
1S
0Q
1O
09
0:
12
#705000
1!
19
1:
02
#710000
0!
09
0:
12
#715000
1!
19
1:
02
#720000
b11001010 %
b11010 "
b10010 "
b11001000 %
b11001100 %
b11001101 %
0!
0\
0[
1V
0U
1T
1P
09
0:
12
#725000
1!
19
1:
02
#730000
0!
09
0:
12
#735000
1!
19
1:
02
#740000
b1001101 %
b1000101 %
b1100101 %
b10110 "
b11110 "
b1100111 %
b1100110 %
0!
1\
1[
0V
1U
0S
1Q
0O
09
0:
12
#745000
1!
19
1:
02
#750000
0!
09
0:
12
#755000
1!
19
1:
02
#760000
b1110110 %
b11100 "
b1110010 %
b11110010 %
b11010010 %
b11000 "
0!
0]
0\
0T
1R
0Q
1O
09
0:
12
#765000
1!
19
1:
02
#770000
0!
09
0:
12
#775000
1!
19
1:
02
#780000
b1000 "
b1001 "
b10010010 %
b10000010 %
b10000110 %
0!
1T
0R
0P
1^
0Z
09
0:
12
#785000
1!
19
1:
02
#790000
0!
09
0:
12
#795000
1!
19
1:
02
#800000
b1011 "
b10100110 %
b1111 "
b11111 "
b10100010 %
0!
0T
1Q
1]
1\
1Z
09
0:
12
#805000
1!
19
1:
02
#810000
0!
09
0:
12
#815000
1!
19
1:
02
#820000
b10111 "
b10100011 %
b100011 %
b10110 "
b10100 "
b10000 "
b0 "
b100111 %
0!
1V
1T
0O
0^
0]
0\
0[
0Z
09
0:
12
#825000
1!
19
1:
02
#830000
0!
09
0:
12
#835000
1!
19
1:
02
#840000
b101111 %
b101101 %
b111101 %
b1000 "
b111100 %
b1001 "
b1011 "
b1111 "
b111000 %
0!
1^
1]
1\
1[
0V
0U
0T
1S
1R
09
0:
12
#845000
1!
19
1:
02
#850000
0!
09
0:
12
#855000
1!
19
1:
02
#860000
b11111 "
b101000 %
b101001 %
b11110 "
b11010 "
b101101 %
0!
1V
1T
0R
0^
0\
1Z
09
0:
12
#865000
1!
19
1:
02
#870000
0!
09
0:
12
#875000
1!
19
1:
02
#880000
b1101101 %
b1001101 %
b1001111 %
b10010 "
b10 "
b1011111 %
b1011110 %
b110 "
b1011010 %
0!
1\
0[
0Z
0V
1U
0T
1R
0Q
1P
09
0:
12
#885000
1!
19
1:
02
#890000
0!
09
0:
12
#895000
1!
19
1:
02
#900000
b11011010 %
b111 "
b10011010 %
b1111 "
b11111 "
b10001010 %
b11011 "
b10001110 %
0!
1^
0\
1[
1Z
1T
0R
0P
1O
09
0:
12
#905000
1!
19
1:
02
#910000
0!
09
0:
12
#915000
1!
19
1:
02
#920000
b11001 "
b10001100 %
b10001101 %
b1101 %
b11000 "
b1000 "
b11101 %
b1100 "
b11001 %
0!
1V
0U
0T
1R
0O
0^
0]
1\
0Z
09
0:
12
#925000
1!
19
1:
02
#930000
0!
09
0:
12
#935000
1!
19
1:
02
#940000
b10001 %
b100 "
b110 "
b10011 %
b10010 %
b10010010 %
b111 "
b10111 "
0!
1^
1]
0[
1Z
0V
1U
0S
1O
09
0:
12
#945000
1!
19
1:
02
#950000
0!
09
0:
12
#955000
1!
19
1:
02
#960000
b11010010 %
b11000010 %
b10011 "
b11001010 %
b11001000 %
b10010 "
b10 "
0!
0^
0\
0Z
0U
1S
0R
1P
09
0:
12
#965000
1!
19
1:
02
#970000
0!
09
0:
12
#975000
1!
19
1:
02
#980000
b11101000 %
b0 "
b11101001 %
b10101001 %
b10100001 %
b1 "
b10001 "
0!
1^
0]
1Z
1V
0S
1Q
0P
09
0:
12
#985000
1!
19
1:
02
#990000
0!
09
0:
12
#995000
1!
19
1:
02
