src/controller/simulation/qsim/controller.msim.vcd
$comment
	File created using the following command:
		vcd file controller.msim.vcd -direction
$end
$date
	Thu Aug 16 00:59:16 2018
$end
$version
	ModelSim Version 10.1d
$end
$timescale
	1ps
$end
$scope module controller_vlg_vec_tst $end
$var reg 1 ! clk $end
$var reg 1 " enter $end
$var reg 1 # equals $end
$var reg 8 $ operand [7:0] $end
$var reg 2 % operator [1:0] $end
$var reg 1 & reset $end
$var reg 8 ' result [7:0] $end
$var wire 1 ( pop $end
$var wire 1 ) push $end
$var wire 1 * push_value [7] $end
$var wire 1 + push_value [6] $end
$var wire 1 , push_value [5] $end
$var wire 1 - push_value [4] $end
$var wire 1 . push_value [3] $end
$var wire 1 / push_value [2] $end
$var wire 1 0 push_value [1] $end
$var wire 1 1 push_value [0] $end
$var wire 1 2 sampler $end
$scope module i1 $end
$var wire 1 3 gnd $end
$var wire 1 4 vcc $end
$var wire 1 5 unknown $end
$var tri1 1 6 devclrn $end
$var tri1 1 7 devpor $end
$var tri1 1 8 devoe $end
$var wire 1 9 state.R1~regout $end
$var wire 1 : next_state.R1~0_combout $end
$var wire 1 ; clk~combout $end
$var wire 1 < clk~clkctrl_outclk $end
$var wire 1 = enter~combout $end
$var wire 1 > equals~combout $end
$var wire 1 ? pop~0_combout $end
$var wire 1 @ reset~combout $end
$var wire 1 A reset~clkctrl_outclk $end
$var wire 1 B state.S1~regout $end
$var wire 1 C Selector1~0_combout $end
$var wire 1 D state.S2~regout $end
$var wire 1 E Selector0~0_combout $end
$var wire 1 F Selector0~1_combout $end
$var wire 1 G state.START~regout $end
$var wire 1 H Selector2~0_combout $end
$var wire 1 I Selector10~0_combout $end
$var wire 1 J Selector9~0_combout $end
$var wire 1 K Selector8~0_combout $end
$var wire 1 L Selector7~0_combout $end
$var wire 1 M Selector6~0_combout $end
$var wire 1 N Selector5~0_combout $end
$var wire 1 O Selector4~0_combout $end
$var wire 1 P Selector3~0_combout $end
$var wire 1 Q Selector2~1_combout $end
$var wire 1 R result~combout [7] $end
$var wire 1 S result~combout [6] $end
$var wire 1 T result~combout [5] $end
$var wire 1 U result~combout [4] $end
$var wire 1 V result~combout [3] $end
$var wire 1 W result~combout [2] $end
$var wire 1 X result~combout [1] $end
$var wire 1 Y result~combout [0] $end
$var wire 1 Z operand~combout [7] $end
$var wire 1 [ operand~combout [6] $end
$var wire 1 \ operand~combout [5] $end
$var wire 1 ] operand~combout [4] $end
$var wire 1 ^ operand~combout [3] $end
$var wire 1 _ operand~combout [2] $end
$var wire 1 ` operand~combout [1] $end
$var wire 1 a operand~combout [0] $end
$upscope $end
$upscope $end
$enddefinitions $end
#0
$dumpvars
0!
0"
0#
b1100 $
b0 %
0&
b0 '
0(
0)
01
00
0/
0.
0-
0,
0+
0*
x2
03
14
x5
16
17
18
09
0:
0;
0<
0=
0>
0?
0@
0A
0B
0C
0D
1E
0F
0G
0H
0I
0J
0K
0L
0M
0N
0O
0P
0Q
0Y
0X
0W
0V
0U
0T
0S
0R
0a
0`
1_
1^
0]
0\
0[
0Z
$end
#5000
1!
1;
1<
02
#10000
0!
0;
0<
12
#15000
1!
1;
1<
02
#20000
1"
b100 $
b0 $
b10 $
0!
1=
1`
0_
0^
0;
0<
12
1Q
1H
0E
1:
1J
1F
1)
10
#25000
1!
1;
1<
02
1G
19
0Q
0H
0J
0)
00
#30000
0"
0!
0=
0;
0<
12
0F
0:
#35000
1!
1;
1<
02
0G
09
1E
1F
0F
#40000
b10010 $
b10011 $
0!
1a
1]
0;
0<
12
#45000
1!
1;
1<
02
#50000
1"
0!
1=
0;
0<
12
1Q
1H
0E
1:
1M
1J
1I
1F
1)
1-
10
11
#55000
1!
1;
1<
02
1G
19
0Q
0H
0M
0J
0I
0)
0-
00
01
#60000
b11 $
b10 $
0"
0!
0a
0]
0=
0;
0<
12
0F
0:
#65000
1!
1;
1<
02
0G
09
1E
1F
0F
#70000
0!
0;
0<
12
#75000
1!
1;
1<
02
#80000
b1010 $
b11010 $
0!
1^
1]
0;
0<
12
#85000
1!
1;
1<
02
#90000
0!
0;
0<
12
#95000
1!
1;
1<
02
#100000
b11000 $
b11001 $
0!
1a
0`
0;
0<
12
#105000
1!
1;
1<
02
#110000
1#
0!
1>
0;
0<
12
0E
1?
1F
1(
#115000
1!
1;
1<
02
1G
1B
1Q
0?
1C
1)
0(
#120000
b1001 $
b1000 $
0#
0!
0a
0]
0>
0;
0<
12
#125000
1!
1;
1<
02
1D
0B
1E
0C
0Q
0F
0)
#130000
0!
0;
0<
12
#135000
1!
1;
1<
02
0G
0D
#140000
b1100 $
b11100 $
b11101 $
1#
0!
1a
1_
1]
1>
0;
0<
12
0E
1?
1F
1(
#145000
1!
1;
1<
02
1G
1B
1Q
0?
1C
1)
0(
#150000
0#
0!
0>
0;
0<
12
#155000
1!
1;
1<
02
1D
0B
1E
0C
0Q
0F
0)
#160000
b11111 $
b11110 $
0!
0a
1`
0;
0<
12
#165000
1!
1;
1<
02
0G
0D
#170000
0!
0;
0<
12
#175000
1!
1;
1<
02
#180000
b10110 $
b10010 $
b10 $
b0 $
0!
0`
0_
0^
0]
0;
0<
12
#185000
1!
1;
1<
02
#190000
0!
0;
0<
12
#195000
1!
1;
1<
02
#200000
b1000 $
b11000 $
0!
1^
1]
0;
0<
12
#205000
1!
1;
1<
02
#210000
0!
0;
0<
12
#215000
1!
1;
1<
02
#220000
0!
0;
0<
12
#225000
1!
1;
1<
02
#230000
0!
0;
0<
12
#235000
1!
1;
1<
02
#240000
b11010 $
b10010 $
0!
1`
0^
0;
0<
12
#245000
1!
1;
1<
02
#250000
0!
0;
0<
12
#255000
1!
1;
1<
02
#260000
b10110 $
b110 $
b1110 $
0!
1_
1^
0]
0;
0<
12
#265000
1!
1;
1<
02
#270000
0!
0;
0<
12
#275000
1!
1;
1<
02
#280000
b1111 $
b1101 $
b1001 $
b11001 $
b10001 $
0!
1a
0`
0_
0^
1]
0;
0<
12
#285000
1!
1;
1<
02
#290000
0!
0;
0<
12
#295000
1!
1;
1<
02
#300000
b10000 $
b10010 $
b10 $
b1010 $
0!
0a
1`
1^
0]
0;
0<
12
#305000
1!
1;
1<
02
#310000
0!
0;
0<
12
#315000
1!
1;
1<
02
#320000
b1110 $
b1111 $
b1101 $
b11101 $
b10101 $
0!
1a
0`
1_
0^
1]
0;
0<
12
#325000
1!
1;
1<
02
#330000
0!
0;
0<
12
#335000
1!
1;
1<
02
#340000
b10100 $
b10110 $
b11110 $
0!
0a
1`
1^
0;
0<
12
#345000
1!
1;
1<
02
#350000
0!
0;
0<
12
#355000
1!
1;
1<
02
#360000
b11010 $
b11011 $
b11001 $
0!
1a
0`
0_
0;
0<
12
#365000
1!
1;
1<
02
#370000
0!
0;
0<
12
#375000
1!
1;
1<
02
#380000
b10001 $
b10101 $
b10100 $
b10110 $
0!
0a
1`
1_
0^
0;
0<
12
#385000
1!
1;
1<
02
#390000
0!
0;
0<
12
#395000
1!
1;
1<
02
#400000
b110 $
b1110 $
b1010 $
b1000 $
0!
0`
0_
1^
0]
0;
0<
12
#405000
1!
1;
1<
02
#410000
0!
0;
0<
12
#415000
1!
1;
1<
02
#420000
b11000 $
b10000 $
b10100 $
b10110 $
0!
1`
1_
0^
1]
0;
0<
12
#425000
1!
1;
1<
02
#430000
0!
0;
0<
12
#435000
1!
1;
1<
02
#440000
b110 $
b10 $
0!
0_
0]
0;
0<
12
#445000
1!
1;
1<
02
#450000
0!
0;
0<
12
#455000
1!
1;
1<
02
#460000
b1010 $
b11010 $
b11110 $
0!
1_
1^
1]
0;
0<
12
#465000
1!
1;
1<
02
#470000
0!
0;
0<
12
#475000
1!
1;
1<
02
#480000
b11100 $
b10100 $
b100 $
b0 $
0!
0`
0_
0^
0]
0;
0<
12
#485000
1!
1;
1<
02
#490000
0!
0;
0<
12
#495000
1!
1;
1<
02
#500000
b1000 $
b11000 $
0!
1^
1]
0;
0<
12
#505000
1!
1;
1<
02
#510000
0!
0;
0<
12
#515000
1!
1;
1<
02
#520000
0!
0;
0<
12
#525000
1!
1;
1<
02
#530000
0!
0;
0<
12
#535000
1!
1;
1<
02
#540000
b11001 $
b11011 $
b11111 $
b10111 $
b111 $
0!
1a
1`
1_
0^
0]
0;
0<
12
#545000
1!
1;
1<
02
#550000
0!
0;
0<
12
#555000
1!
1;
1<
02
#560000
b110 $
b10 $
0!
0a
0_
0;
0<
12
#565000
1!
1;
1<
02
#570000
0!
0;
0<
12
#575000
1!
1;
1<
02
#580000
b10010 $
b10110 $
0!
1_
1]
0;
0<
12
#585000
1!
1;
1<
02
#590000
0!
0;
0<
12
#595000
1!
1;
1<
02
#600000
b11110 $
b1110 $
0!
1^
0]
0;
0<
12
#605000
1!
1;
1<
02
#610000
0!
0;
0<
12
#615000
1!
1;
1<
02
#620000
b1111 $
b111 $
b10111 $
0!
1a
0^
1]
0;
0<
12
#625000
1!
1;
1<
02
#630000
0!
0;
0<
12
#635000
1!
1;
1<
02
#640000
b10101 $
b10001 $
b10000 $
b11000 $
0!
0a
0`
0_
1^
0;
0<
12
#645000
1!
1;
1<
02
#650000
0!
0;
0<
12
#655000
1!
1;
1<
02
#660000
b11010 $
b10010 $
0!
1`
0^
0;
0<
12
#665000
1!
1;
1<
02
#670000
0!
0;
0<
12
#675000
1!
1;
1<
02
#680000
b10 $
b110 $
b111 $
b101 $
b1101 $
0!
1a
0`
1_
1^
0]
0;
0<
12
#685000
1!
1;
1<
02
#690000
0!
0;
0<
12
#695000
1!
1;
1<
02
#700000
b11101 $
b11100 $
b11110 $
0!
0a
1`
1]
0;
0<
12
#705000
1!
1;
1<
02
#710000
0!
0;
0<
12
#715000
1!
1;
1<
02
#720000
b11010 $
b10010 $
0!
0_
0^
0;
0<
12
#725000
1!
1;
1<
02
#730000
0!
0;
0<
12
#735000
1!
1;
1<
02
#740000
b10110 $
b11110 $
0!
1_
1^
0;
0<
12
#745000
1!
1;
1<
02
#750000
0!
0;
0<
12
#755000
1!
1;
1<
02
#760000
b11100 $
b11000 $
0!
0`
0_
0;
0<
12
#765000
1!
1;
1<
02
#770000
0!
0;
0<
12
#775000
1!
1;
1<
02
#780000
b1000 $
b1001 $
0!
1a
0]
0;
0<
12
#785000
1!
1;
1<
02
#790000
0!
0;
0<
12
#795000
1!
1;
1<
02
#800000
b1011 $
b1111 $
b11111 $
0!
1`
1_
1]
0;
0<
12
#805000
1!
1;
1<
02
#810000
0!
0;
0<
12
#815000
1!
1;
1<
02
#820000
b10111 $
b10110 $
b10100 $
b10000 $
b0 $
0!
0a
0`
0_
0^
0]
0;
0<
12
#825000
1!
1;
1<
02
#830000
0!
0;
0<
12
#835000
1!
1;
1<
02
#840000
b1000 $
b1001 $
b1011 $
b1111 $
0!
1a
1`
1_
1^
0;
0<
12
#845000
1!
1;
1<
02
#850000
0!
0;
0<
12
#855000
1!
1;
1<
02
#860000
b11111 $
b11110 $
b11010 $
0!
0a
0_
1]
0;
0<
12
#865000
1!
1;
1<
02
#870000
0!
0;
0<
12
#875000
1!
1;
1<
02
#880000
b10010 $
b10 $
b110 $
0!
1_
0^
0]
0;
0<
12
#885000
1!
1;
1<
02
#890000
0!
0;
0<
12
#895000
1!
1;
1<
02
#900000
b111 $
b1111 $
b11111 $
b11011 $
0!
1a
0_
1^
1]
0;
0<
12
#905000
1!
1;
1<
02
#910000
0!
0;
0<
12
#915000
1!
1;
1<
02
#920000
b11001 $
b11000 $
b1000 $
b1100 $
0!
0a
0`
1_
0]
0;
0<
12
#925000
1!
1;
1<
02
#930000
0!
0;
0<
12
#935000
1!
1;
1<
02
#940000
b100 $
b110 $
b111 $
b10111 $
0!
1a
1`
0^
1]
0;
0<
12
#945000
1!
1;
1<
02
#950000
0!
0;
0<
12
#955000
1!
1;
1<
02
#960000
b10011 $
b10010 $
b10 $
0!
0a
0_
0]
0;
0<
12
#965000
1!
1;
1<
02
#970000
0!
0;
0<
12
#975000
1!
1;
1<
02
#980000
b0 $
b1 $
b10001 $
0!
1a
0`
1]
0;
0<
12
#985000
1!
1;
1<
02
#990000
0!
0;
0<
12
#995000
1!
1;
1<
02
