src/pwm_module/simulation/qsim/pwm_module.msim.vcd
$comment
	File created using the following command:
		vcd file pwm_module.msim.vcd -direction
$end
$date
	Sun Aug 19 01:55:58 2018
$end
$version
	ModelSim Version 10.1d
$end
$timescale
	1ps
$end
$scope module pwm_module_vlg_vec_tst $end
$var reg 1 ! clk $end
$var reg 8 " duty [7:0] $end
$var reg 1 # enable $end
$var reg 1 $ reset $end
$var wire 1 % pwm_out $end
$var wire 1 & sampler $end
$scope module i1 $end
$var wire 1 ' gnd $end
$var wire 1 ( vcc $end
$var wire 1 ) unknown $end
$var tri1 1 * devclrn $end
$var tri1 1 + devpor $end
$var tri1 1 , devoe $end
$var wire 1 - counter[4]~13_combout $end
$var wire 1 . counter[6]~17_combout $end
$var wire 1 / counter[0]~21_combout $end
$var wire 1 0 enable~combout $end
$var wire 1 1 clk~combout $end
$var wire 1 2 clk~clkctrl_outclk $end
$var wire 1 3 reset~combout $end
$var wire 1 4 counter[1]~7_combout $end
$var wire 1 5 reset~clkctrl_outclk $end
$var wire 1 6 counter[1]~8 $end
$var wire 1 7 counter[2]~9_combout $end
$var wire 1 8 counter[2]~10 $end
$var wire 1 9 counter[3]~11_combout $end
$var wire 1 : counter[3]~12 $end
$var wire 1 ; counter[4]~14 $end
$var wire 1 < counter[5]~15_combout $end
$var wire 1 = counter[5]~16 $end
$var wire 1 > counter[6]~18 $end
$var wire 1 ? counter[7]~19_combout $end
$var wire 1 @ LessThan0~1_cout $end
$var wire 1 A LessThan0~3_cout $end
$var wire 1 B LessThan0~5_cout $end
$var wire 1 C LessThan0~7_cout $end
$var wire 1 D LessThan0~9_cout $end
$var wire 1 E LessThan0~11_cout $end
$var wire 1 F LessThan0~13_cout $end
$var wire 1 G LessThan0~14_combout $end
$var wire 1 H pwm_out~0_combout $end
$var wire 1 I pwm_out~reg0_regout $end
$var wire 1 J counter [7] $end
$var wire 1 K counter [6] $end
$var wire 1 L counter [5] $end
$var wire 1 M counter [4] $end
$var wire 1 N counter [3] $end
$var wire 1 O counter [2] $end
$var wire 1 P counter [1] $end
$var wire 1 Q counter [0] $end
$var wire 1 R duty~combout [7] $end
$var wire 1 S duty~combout [6] $end
$var wire 1 T duty~combout [5] $end
$var wire 1 U duty~combout [4] $end
$var wire 1 V duty~combout [3] $end
$var wire 1 W duty~combout [2] $end
$var wire 1 X duty~combout [1] $end
$var wire 1 Y duty~combout [0] $end
$upscope $end
$upscope $end
$enddefinitions $end
#0
$dumpvars
0!
b0 "
1#
0$
0%
x&
0'
1(
x)
1*
1+
1,
0-
0.
1/
10
01
02
03
04
05
06
07
18
09
0:
1;
0<
0=
1>
0?
0@
1A
0B
1C
0D
1E
0F
0G
1H
0I
0Q
0P
0O
0N
0M
0L
0K
0J
0Y
0X
0W
0V
0U
0T
0S
0R
$end
#1000
1!
11
12
0&
1I
1Q
1@
14
0/
1%
0A
1B
0C
1D
0E
1F
1G
0H
#2000
0!
01
02
1&
#3000
1!
11
12
0&
0I
1P
0Q
0@
1/
0%
#4000
0!
01
02
1&
#5000
1!
11
12
0&
1Q
1@
16
04
0/
17
#6000
0!
01
02
1&
#7000
1!
11
12
0&
1O
0P
0Q
08
07
06
0@
1/
19
18
17
1A
09
#8000
0!
01
02
1&
#9000
1!
11
12
0&
1Q
1@
14
0/
0A
#10000
0!
01
02
1&
#11000
1!
11
12
0&
1P
0Q
0@
1/
#12000
0!
01
02
1&
#13000
1!
11
12
0&
1Q
1@
16
04
0/
08
07
19
#14000
0!
01
02
1&
#15000
1!
11
12
0&
1N
0O
0P
0Q
1:
09
18
17
06
0@
1/
1-
0:
19
07
1A
0-
0B
#16000
0!
01
02
1&
#17000
1!
11
12
0&
1Q
1@
14
0/
0A
1B
#18000
0!
01
02
1&
#19000
1!
11
12
0&
1P
0Q
0@
1/
#20000
0!
01
02
1&
#21000
1!
11
12
0&
1Q
1@
16
04
0/
17
#22000
0!
01
02
1&
#23000
1!
11
12
0&
1O
0P
0Q
08
07
06
0@
1/
1:
09
18
17
1A
1-
0:
19
0-
#24000
0!
01
02
1&
#25000
1!
11
12
0&
1Q
1@
14
0/
0A
#26000
0!
01
02
1&
#27000
1!
11
12
0&
1P
0Q
0@
1/
#28000
0!
01
02
1&
#29000
1!
11
12
0&
1Q
1@
16
04
0/
08
07
1:
09
1-
#30000
0!
01
02
1&
#31000
1!
11
12
0&
0N
0O
0P
0Q
1M
0:
19
18
17
06
0@
1/
0;
0-
1;
1-
09
07
1A
1<
0<
0B
1C
#32000
0!
01
02
1&
#33000
1!
11
12
0&
1Q
1@
14
0/
0A
1B
0C
#34000
0!
01
02
1&
#35000
1!
11
12
0&
1P
0Q
0@
1/
#36000
0!
01
02
1&
#37000
1!
11
12
0&
1Q
1@
16
04
0/
17
#38000
0!
01
02
1&
#39000
1!
11
12
0&
1O
0P
0Q
08
07
06
0@
1/
19
18
17
1A
09
#40000
0!
01
02
1&
#41000
1!
11
12
0&
1Q
1@
14
0/
0A
#42000
0!
01
02
1&
#43000
1!
11
12
0&
1P
0Q
0@
1/
#44000
0!
01
02
1&
#45000
1!
11
12
0&
1Q
1@
16
04
0/
08
07
19
#46000
0!
01
02
1&
#47000
1!
11
12
0&
1N
0O
0P
0Q
1:
09
18
17
06
0@
1/
0;
0-
0:
19
07
1A
1<
1;
1-
0B
0<
#48000
0!
01
02
1&
#49000
1!
11
12
0&
1Q
1@
14
0/
0A
1B
#50000
0!
01
02
1&
#51000
1!
11
12
0&
1P
0Q
0@
1/
#52000
0!
01
02
1&
#53000
1!
11
12
0&
1Q
1@
16
04
0/
17
#54000
0!
01
02
1&
#55000
1!
11
12
0&
1O
0P
0Q
08
07
06
0@
1/
1:
09
18
17
1A
0;
0-
0:
19
1<
1;
1-
0<
#56000
0!
01
02
1&
#57000
1!
11
12
0&
1Q
1@
14
0/
0A
#58000
0!
01
02
1&
#59000
1!
11
12
0&
1P
0Q
0@
1/
#60000
0!
01
02
1&
#61000
1!
11
12
0&
1Q
1@
16
04
0/
08
07
1:
09
0;
0-
1<
#62000
0!
01
02
1&
#63000
1!
11
12
0&
1L
0N
0O
0P
0Q
0M
1=
0<
0:
19
18
17
06
0@
1/
1;
1-
1.
0-
09
07
1A
0=
1<
0B
0.
1C
0D
#64000
0!
01
02
1&
#65000
1!
11
12
0&
1Q
1@
14
0/
0A
1B
0C
1D
#66000
0!
01
02
1&
#67000
1!
11
12
0&
1P
0Q
0@
1/
#68000
0!
01
02
1&
#69000
1!
11
12
0&
1Q
1@
16
04
0/
17
#70000
b10000000 "
b11000000 "
b11100000 "
b11110000 "
b11111000 "
b11111100 "
b11111110 "
b11111111 "
0!
1Y
1X
1W
1V
1U
1T
1S
1R
01
02
1&
0@
0B
1C
0D
0F
0G
1A
1E
1H
#71000
1!
11
12
0&
1I
1O
0P
0Q
08
07
06
1/
1%
19
18
17
09
#72000
0!
01
02
1&
#73000
1!
11
12
0&
1Q
14
0/
#74000
0!
01
02
1&
#75000
1!
11
12
0&
1P
0Q
1/
#76000
0!
01
02
1&
#77000
1!
11
12
0&
1Q
16
04
0/
08
07
19
#78000
0!
01
02
1&
#79000
1!
11
12
0&
1N
0O
0P
0Q
1:
09
18
17
06
1/
1-
0:
19
07
0-
#80000
0!
01
02
1&
#81000
1!
11
12
0&
1Q
14
0/
#82000
0!
01
02
1&
#83000
1!
11
12
0&
1P
0Q
1/
#84000
0!
01
02
1&
#85000
1!
11
12
0&
1Q
16
04
0/
17
#86000
0!
01
02
1&
#87000
1!
11
12
0&
1O
0P
0Q
08
07
06
1/
1:
09
18
17
1-
0:
19
0-
#88000
0!
01
02
1&
#89000
1!
11
12
0&
1Q
14
0/
#90000
0!
01
02
1&
#91000
1!
11
12
0&
1P
0Q
1/
#92000
0!
01
02
1&
#93000
1!
11
12
0&
1Q
16
04
0/
08
07
1:
09
1-
#94000
0!
01
02
1&
#95000
1!
11
12
0&
0N
0O
0P
0Q
1M
0:
19
18
17
06
1/
0;
0-
1;
1-
09
07
1=
0<
0=
1<
1.
0.
#96000
0!
01
02
1&
#97000
1!
11
12
0&
1Q
14
0/
#98000
0!
01
02
1&
#99000
1!
11
12
0&
1P
0Q
1/
#100000
b1111111 "
b111111 "
b11111 "
b1111 "
b111 "
b11 "
b1 "
b0 "
0!
0Y
0X
0W
0V
0U
0T
0S
0R
01
02
1&
0A
1D
0E
1B
1F
0C
1G
0H
#101000
1!
11
12
0&
0I
1Q
1@
16
04
0/
0%
17
#102000
0!
01
02
1&
#103000
1!
11
12
0&
1O
0P
0Q
08
07
06
0@
1/
19
18
17
1A
09
#104000
0!
01
02
1&
#105000
1!
11
12
0&
1Q
1@
14
0/
0A
#106000
0!
01
02
1&
#107000
1!
11
12
0&
1P
0Q
0@
1/
#108000
0!
01
02
1&
#109000
1!
11
12
0&
1Q
1@
16
04
0/
08
07
19
#110000
0!
01
02
1&
#111000
1!
11
12
0&
1N
0O
0P
0Q
1:
09
18
17
06
0@
1/
0;
0-
0:
19
07
1A
1=
0<
1;
1-
0B
1.
0=
1<
0.
#112000
0!
01
02
1&
#113000
1!
11
12
0&
1Q
1@
14
0/
0A
1B
#114000
0!
01
02
1&
#115000
1!
11
12
0&
1P
0Q
0@
1/
#116000
0!
01
02
1&
#117000
1!
11
12
0&
1Q
1@
16
04
0/
17
#118000
0!
01
02
1&
#119000
1!
11
12
0&
1O
0P
0Q
08
07
06
0@
1/
1:
09
18
17
1A
0;
0-
0:
19
1=
0<
1;
1-
1.
0=
1<
0.
#120000
0!
01
02
1&
#121000
1!
11
12
0&
1Q
1@
14
0/
0A
#122000
0!
01
02
1&
#123000
1!
11
12
0&
1P
0Q
0@
1/
#124000
0!
01
02
1&
#125000
1!
11
12
0&
1Q
1@
16
04
0/
08
07
1:
09
0;
0-
1=
0<
1.
#126000
0!
01
02
1&
#127000
1!
11
12
0&
0L
0N
0O
0P
0Q
0M
1K
0=
1<
0:
19
18
17
06
0@
1/
1;
1-
0>
0.
1>
1.
0-
09
07
1A
0<
1?
0?
0B
1C
0D
1E
#128000
0!
01
02
1&
#129000
1!
11
12
0&
1Q
1@
14
0/
0A
1B
0C
1D
0E
#130000
0!
01
02
1&
#131000
1!
11
12
0&
1P
0Q
0@
1/
#132000
0!
01
02
1&
#133000
1!
11
12
0&
1Q
1@
16
04
0/
17
#134000
0!
01
02
1&
#135000
1!
11
12
0&
1O
0P
0Q
08
07
06
0@
1/
19
18
17
1A
09
#136000
0!
01
02
1&
#137000
1!
11
12
0&
1Q
1@
14
0/
0A
#138000
0!
01
02
1&
#139000
1!
11
12
0&
1P
0Q
0@
1/
#140000
0!
01
02
1&
#141000
1!
11
12
0&
1Q
1@
16
04
0/
08
07
19
#142000
0!
01
02
1&
#143000
1!
11
12
0&
1N
0O
0P
0Q
1:
09
18
17
06
0@
1/
1-
0:
19
07
1A
0-
0B
#144000
0!
01
02
1&
#145000
1!
11
12
0&
1Q
1@
14
0/
0A
1B
#146000
0!
01
02
1&
#147000
1!
11
12
0&
1P
0Q
0@
1/
#148000
0!
01
02
1&
#149000
1!
11
12
0&
1Q
1@
16
04
0/
17
#150000
0!
01
02
1&
#151000
1!
11
12
0&
1O
0P
0Q
08
07
06
0@
1/
1:
09
18
17
1A
1-
0:
19
0-
#152000
0!
01
02
1&
#153000
1!
11
12
0&
1Q
1@
14
0/
0A
#154000
0!
01
02
1&
#155000
1!
11
12
0&
1P
0Q
0@
1/
#156000
0!
01
02
1&
#157000
1!
11
12
0&
1Q
1@
16
04
0/
08
07
1:
09
1-
#158000
0!
01
02
1&
#159000
1!
11
12
0&
0N
0O
0P
0Q
1M
0:
19
18
17
06
0@
1/
0;
0-
1;
1-
09
07
1A
1<
0<
0B
1C
#160000
0!
01
02
1&
#161000
1!
11
12
0&
1Q
1@
14
0/
0A
1B
0C
#162000
0!
01
02
1&
#163000
1!
11
12
0&
1P
0Q
0@
1/
#164000
0!
01
02
1&
#165000
1!
11
12
0&
1Q
1@
16
04
0/
17
#166000
0!
01
02
1&
#167000
1!
11
12
0&
1O
0P
0Q
08
07
06
0@
1/
19
18
17
1A
09
#168000
0!
01
02
1&
#169000
1!
11
12
0&
1Q
1@
14
0/
0A
#170000
0!
01
02
1&
#171000
1!
11
12
0&
1P
0Q
0@
1/
#172000
0!
01
02
1&
#173000
1!
11
12
0&
1Q
1@
16
04
0/
08
07
19
#174000
0!
01
02
1&
#175000
1!
11
12
0&
1N
0O
0P
0Q
1:
09
18
17
06
0@
1/
0;
0-
0:
19
07
1A
1<
1;
1-
0B
0<
#176000
0!
01
02
1&
#177000
1!
11
12
0&
1Q
1@
14
0/
0A
1B
#178000
0!
01
02
1&
#179000
1!
11
12
0&
1P
0Q
0@
1/
#180000
0!
01
02
1&
#181000
1!
11
12
0&
1Q
1@
16
04
0/
17
#182000
0!
01
02
1&
#183000
1!
11
12
0&
1O
0P
0Q
08
07
06
0@
1/
1:
09
18
17
1A
0;
0-
0:
19
1<
1;
1-
0<
#184000
0!
01
02
1&
#185000
1!
11
12
0&
1Q
1@
14
0/
0A
#186000
0!
01
02
1&
#187000
1!
11
12
0&
1P
0Q
0@
1/
#188000
0!
01
02
1&
#189000
1!
11
12
0&
1Q
1@
16
04
0/
08
07
1:
09
0;
0-
1<
#190000
0!
01
02
1&
#191000
1!
11
12
0&
1L
0N
0O
0P
0Q
0M
1=
0<
0:
19
18
17
06
0@
1/
1;
1-
0>
0.
0-
09
07
1A
0=
1<
1?
0B
1>
1.
1C
0?
0D
#192000
0!
01
02
1&
#193000
1!
11
12
0&
1Q
1@
14
0/
0A
1B
0C
1D
#194000
0!
01
02
1&
#195000
1!
11
12
0&
1P
0Q
0@
1/
#196000
0!
01
02
1&
#197000
1!
11
12
0&
1Q
1@
16
04
0/
17
#198000
0!
01
02
1&
#199000
1!
11
12
0&
1O
0P
0Q
08
07
06
0@
1/
19
18
17
1A
09
#200000
0!
01
02
1&
#201000
1!
11
12
0&
1Q
1@
14
0/
0A
#202000
0!
01
02
1&
#203000
1!
11
12
0&
1P
0Q
0@
1/
#204000
0!
01
02
1&
#205000
1!
11
12
0&
1Q
1@
16
04
0/
08
07
19
#206000
0!
01
02
1&
#207000
1!
11
12
0&
1N
0O
0P
0Q
1:
09
18
17
06
0@
1/
1-
0:
19
07
1A
0-
0B
#208000
0!
01
02
1&
#209000
1!
11
12
0&
1Q
1@
14
0/
0A
1B
#210000
0!
01
02
1&
#211000
1!
11
12
0&
1P
0Q
0@
1/
#212000
0!
01
02
1&
#213000
1!
11
12
0&
1Q
1@
16
04
0/
17
#214000
0!
01
02
1&
#215000
1!
11
12
0&
1O
0P
0Q
08
07
06
0@
1/
1:
09
18
17
1A
1-
0:
19
0-
#216000
0!
01
02
1&
#217000
1!
11
12
0&
1Q
1@
14
0/
0A
#218000
0!
01
02
1&
#219000
1!
11
12
0&
1P
0Q
0@
1/
#220000
0!
01
02
1&
#221000
1!
11
12
0&
1Q
1@
16
04
0/
08
07
1:
09
1-
#222000
0!
01
02
1&
#223000
1!
11
12
0&
0N
0O
0P
0Q
1M
0:
19
18
17
06
0@
1/
0;
0-
1;
1-
09
07
1A
1=
0<
0=
1<
0B
0>
0.
1>
1.
1C
1?
0?
#224000
0!
01
02
1&
#225000
1!
11
12
0&
1Q
1@
14
0/
0A
1B
0C
#226000
0!
01
02
1&
#227000
1!
11
12
0&
1P
0Q
0@
1/
#228000
0!
01
02
1&
#229000
1!
11
12
0&
1Q
1@
16
04
0/
17
#230000
0!
01
02
1&
#231000
1!
11
12
0&
1O
0P
0Q
08
07
06
0@
1/
19
18
17
1A
09
#232000
0!
01
02
1&
#233000
1!
11
12
0&
1Q
1@
14
0/
0A
#234000
0!
01
02
1&
#235000
1!
11
12
0&
1P
0Q
0@
1/
#236000
0!
01
02
1&
#237000
1!
11
12
0&
1Q
1@
16
04
0/
08
07
19
#238000
0!
01
02
1&
#239000
1!
11
12
0&
1N
0O
0P
0Q
1:
09
18
17
06
0@
1/
0;
0-
0:
19
07
1A
1=
0<
1;
1-
0B
0>
0.
0=
1<
1?
1>
1.
0?
#240000
0!
01
02
1&
#241000
1!
11
12
0&
1Q
1@
14
0/
0A
1B
#242000
0!
01
02
1&
#243000
1!
11
12
0&
1P
0Q
0@
1/
#244000
0!
01
02
1&
#245000
1!
11
12
0&
1Q
1@
16
04
0/
17
#246000
0!
01
02
1&
#247000
1!
11
12
0&
1O
0P
0Q
08
07
06
0@
1/
1:
09
18
17
1A
0;
0-
0:
19
1=
0<
1;
1-
0>
0.
0=
1<
1?
1>
1.
0?
#248000
0!
01
02
1&
#249000
1!
11
12
0&
1Q
1@
14
0/
0A
#250000
0!
01
02
1&
#251000
1!
11
12
0&
1P
0Q
0@
1/
#252000
0!
01
02
1&
#253000
1!
11
12
0&
1Q
1@
16
04
0/
08
07
1:
09
0;
0-
1=
0<
0>
0.
1?
#254000
0!
01
02
1&
#255000
1!
11
12
0&
1J
0L
0N
0O
0P
0Q
0M
0K
0?
0=
1<
0:
19
18
17
06
0@
1/
1;
1-
1>
1.
0.
0-
09
07
1A
0<
1?
0B
1C
0D
1E
0F
#256000
0!
01
02
1&
#257000
1!
11
12
0&
1Q
1@
14
0/
0A
1B
0C
1D
0E
1F
#258000
0!
01
02
1&
#259000
1!
11
12
0&
1P
0Q
0@
1/
#260000
0!
01
02
1&
#261000
1!
11
12
0&
1Q
1@
16
04
0/
17
#262000
0!
01
02
1&
#263000
1!
11
12
0&
1O
0P
0Q
08
07
06
0@
1/
19
18
17
1A
09
#264000
0!
01
02
1&
#265000
1!
11
12
0&
1Q
1@
14
0/
0A
#266000
0!
01
02
1&
#267000
1!
11
12
0&
1P
0Q
0@
1/
#268000
0!
01
02
1&
#269000
1!
11
12
0&
1Q
1@
16
04
0/
08
07
19
#270000
0!
01
02
1&
#271000
1!
11
12
0&
1N
0O
0P
0Q
1:
09
18
17
06
0@
1/
1-
0:
19
07
1A
0-
0B
#272000
0!
01
02
1&
#273000
1!
11
12
0&
1Q
1@
14
0/
0A
1B
#274000
0!
01
02
1&
#275000
1!
11
12
0&
1P
0Q
0@
1/
#276000
0!
01
02
1&
#277000
1!
11
12
0&
1Q
1@
16
04
0/
17
#278000
0!
01
02
1&
#279000
1!
11
12
0&
1O
0P
0Q
08
07
06
0@
1/
1:
09
18
17
1A
1-
0:
19
0-
#280000
0!
01
02
1&
#281000
1!
11
12
0&
1Q
1@
14
0/
0A
#282000
0!
01
02
1&
#283000
1!
11
12
0&
1P
0Q
0@
1/
#284000
0!
01
02
1&
#285000
1!
11
12
0&
1Q
1@
16
04
0/
08
07
1:
09
1-
#286000
0!
01
02
1&
#287000
1!
11
12
0&
0N
0O
0P
0Q
1M
0:
19
18
17
06
0@
1/
0;
0-
1;
1-
09
07
1A
1<
0<
0B
1C
#288000
0!
01
02
1&
#289000
1!
11
12
0&
1Q
1@
14
0/
0A
1B
0C
#290000
0!
01
02
1&
#291000
1!
11
12
0&
1P
0Q
0@
1/
#292000
0!
01
02
1&
#293000
1!
11
12
0&
1Q
1@
16
04
0/
17
#294000
0!
01
02
1&
#295000
1!
11
12
0&
1O
0P
0Q
08
07
06
0@
1/
19
18
17
1A
09
#296000
0!
01
02
1&
#297000
1!
11
12
0&
1Q
1@
14
0/
0A
#298000
0!
01
02
1&
#299000
1!
11
12
0&
1P
0Q
0@
1/
#300000
0!
01
02
1&
#301000
1!
11
12
0&
1Q
1@
16
04
0/
08
07
19
#302000
0!
01
02
1&
#303000
1!
11
12
0&
1N
0O
0P
0Q
1:
09
18
17
06
0@
1/
0;
0-
0:
19
07
1A
1<
1;
1-
0B
0<
#304000
0!
01
02
1&
#305000
1!
11
12
0&
1Q
1@
14
0/
0A
1B
#306000
0!
01
02
1&
#307000
1!
11
12
0&
1P
0Q
0@
1/
#308000
0!
01
02
1&
#309000
1!
11
12
0&
1Q
1@
16
04
0/
17
#310000
0!
01
02
1&
#311000
1!
11
12
0&
1O
0P
0Q
08
07
06
0@
1/
1:
09
18
17
1A
0;
0-
0:
19
1<
1;
1-
0<
#312000
0!
01
02
1&
#313000
1!
11
12
0&
1Q
1@
14
0/
0A
#314000
0!
01
02
1&
#315000
1!
11
12
0&
1P
0Q
0@
1/
#316000
0!
01
02
1&
#317000
1!
11
12
0&
1Q
1@
16
04
0/
08
07
1:
09
0;
0-
1<
#318000
0!
01
02
1&
#319000
1!
11
12
0&
1L
0N
0O
0P
0Q
0M
1=
0<
0:
19
18
17
06
0@
1/
1;
1-
1.
0-
09
07
1A
0=
1<
0B
0.
1C
0D
#320000
0!
01
02
1&
#321000
1!
11
12
0&
1Q
1@
14
0/
0A
1B
0C
1D
#322000
0!
01
02
1&
#323000
1!
11
12
0&
1P
0Q
0@
1/
#324000
0!
01
02
1&
#325000
1!
11
12
0&
1Q
1@
16
04
0/
17
#326000
0!
01
02
1&
#327000
1!
11
12
0&
1O
0P
0Q
08
07
06
0@
1/
19
18
17
1A
09
#328000
0!
01
02
1&
#329000
1!
11
12
0&
1Q
1@
14
0/
0A
#330000
0!
01
02
1&
#331000
1!
11
12
0&
1P
0Q
0@
1/
#332000
0!
01
02
1&
#333000
1!
11
12
0&
1Q
1@
16
04
0/
08
07
19
#334000
0!
01
02
1&
#335000
1!
11
12
0&
1N
0O
0P
0Q
1:
09
18
17
06
0@
1/
1-
0:
19
07
1A
0-
0B
#336000
0!
01
02
1&
#337000
1!
11
12
0&
1Q
1@
14
0/
0A
1B
#338000
0!
01
02
1&
#339000
1!
11
12
0&
1P
0Q
0@
1/
#340000
0!
01
02
1&
#341000
1!
11
12
0&
1Q
1@
16
04
0/
17
#342000
0!
01
02
1&
#343000
1!
11
12
0&
1O
0P
0Q
08
07
06
0@
1/
1:
09
18
17
1A
1-
0:
19
0-
#344000
0!
01
02
1&
#345000
1!
11
12
0&
1Q
1@
14
0/
0A
#346000
0!
01
02
1&
#347000
1!
11
12
0&
1P
0Q
0@
1/
#348000
0!
01
02
1&
#349000
1!
11
12
0&
1Q
1@
16
04
0/
08
07
1:
09
1-
#350000
0!
01
02
1&
#351000
1!
11
12
0&
0N
0O
0P
0Q
1M
0:
19
18
17
06
0@
1/
0;
0-
1;
1-
09
07
1A
1=
0<
0=
1<
0B
1.
0.
1C
#352000
0!
01
02
1&
#353000
1!
11
12
0&
1Q
1@
14
0/
0A
1B
0C
#354000
0!
01
02
1&
#355000
1!
11
12
0&
1P
0Q
0@
1/
#356000
0!
01
02
1&
#357000
1!
11
12
0&
1Q
1@
16
04
0/
17
#358000
0!
01
02
1&
#359000
1!
11
12
0&
1O
0P
0Q
08
07
06
0@
1/
19
18
17
1A
09
#360000
0!
01
02
1&
#361000
1!
11
12
0&
1Q
1@
14
0/
0A
#362000
0!
01
02
1&
#363000
1!
11
12
0&
1P
0Q
0@
1/
#364000
0!
01
02
1&
#365000
1!
11
12
0&
1Q
1@
16
04
0/
08
07
19
#366000
0!
01
02
1&
#367000
1!
11
12
0&
1N
0O
0P
0Q
1:
09
18
17
06
0@
1/
0;
0-
0:
19
07
1A
1=
0<
1;
1-
0B
1.
0=
1<
0.
#368000
0!
01
02
1&
#369000
1!
11
12
0&
1Q
1@
14
0/
0A
1B
#370000
0!
01
02
1&
#371000
1!
11
12
0&
1P
0Q
0@
1/
#372000
0!
01
02
1&
#373000
1!
11
12
0&
1Q
1@
16
04
0/
17
#374000
0!
01
02
1&
#375000
1!
11
12
0&
1O
0P
0Q
08
07
06
0@
1/
1:
09
18
17
1A
0;
0-
0:
19
1=
0<
1;
1-
1.
0=
1<
0.
#376000
0!
01
02
1&
#377000
1!
11
12
0&
1Q
1@
14
0/
0A
#378000
0!
01
02
1&
#379000
1!
11
12
0&
1P
0Q
0@
1/
#380000
0!
01
02
1&
#381000
1!
11
12
0&
1Q
1@
16
04
0/
08
07
1:
09
0;
0-
1=
0<
1.
#382000
0!
01
02
1&
#383000
1!
11
12
0&
0L
0N
0O
0P
0Q
0M
1K
0=
1<
0:
19
18
17
06
0@
1/
1;
1-
0>
0.
1>
1.
0-
09
07
1A
0<
0?
1?
0B
1C
0D
1E
#384000
0!
01
02
1&
#385000
1!
11
12
0&
1Q
1@
14
0/
0A
1B
0C
1D
0E
#386000
0!
01
02
1&
#387000
1!
11
12
0&
1P
0Q
0@
1/
#388000
0!
01
02
1&
#389000
1!
11
12
0&
1Q
1@
16
04
0/
17
#390000
0!
01
02
1&
#391000
1!
11
12
0&
1O
0P
0Q
08
07
06
0@
1/
19
18
17
1A
09
#392000
0!
01
02
1&
#393000
1!
11
12
0&
1Q
1@
14
0/
0A
#394000
0!
01
02
1&
#395000
1!
11
12
0&
1P
0Q
0@
1/
#396000
0!
01
02
1&
#397000
1!
11
12
0&
1Q
1@
16
04
0/
08
07
19
#398000
0!
01
02
1&
#399000
1!
11
12
0&
1N
0O
0P
0Q
1:
09
18
17
06
0@
1/
1-
0:
19
07
1A
0-
0B
#400000
0!
01
02
1&
#401000
1!
11
12
0&
1Q
1@
14
0/
0A
1B
#402000
0!
01
02
1&
#403000
1!
11
12
0&
1P
0Q
0@
1/
#404000
0!
01
02
1&
#405000
1!
11
12
0&
1Q
1@
16
04
0/
17
#406000
0!
01
02
1&
#407000
1!
11
12
0&
1O
0P
0Q
08
07
06
0@
1/
1:
09
18
17
1A
1-
0:
19
0-
#408000
0!
01
02
1&
#409000
1!
11
12
0&
1Q
1@
14
0/
0A
#410000
0!
01
02
1&
#411000
1!
11
12
0&
1P
0Q
0@
1/
#412000
0!
01
02
1&
#413000
1!
11
12
0&
1Q
1@
16
04
0/
08
07
1:
09
1-
#414000
0!
01
02
1&
#415000
1!
11
12
0&
0N
0O
0P
0Q
1M
0:
19
18
17
06
0@
1/
0;
0-
1;
1-
09
07
1A
1<
0<
0B
1C
#416000
0!
01
02
1&
#417000
1!
11
12
0&
1Q
1@
14
0/
0A
1B
0C
#418000
0!
01
02
1&
#419000
1!
11
12
0&
1P
0Q
0@
1/
#420000
0!
01
02
1&
#421000
1!
11
12
0&
1Q
1@
16
04
0/
17
#422000
0!
01
02
1&
#423000
1!
11
12
0&
1O
0P
0Q
08
07
06
0@
1/
19
18
17
1A
09
#424000
0!
01
02
1&
#425000
1!
11
12
0&
1Q
1@
14
0/
0A
#426000
0!
01
02
1&
#427000
1!
11
12
0&
1P
0Q
0@
1/
#428000
0!
01
02
1&
#429000
1!
11
12
0&
1Q
1@
16
04
0/
08
07
19
#430000
0!
01
02
1&
#431000
1!
11
12
0&
1N
0O
0P
0Q
1:
09
18
17
06
0@
1/
0;
0-
0:
19
07
1A
1<
1;
1-
0B
0<
#432000
0!
01
02
1&
#433000
1!
11
12
0&
1Q
1@
14
0/
0A
1B
#434000
0!
01
02
1&
#435000
1!
11
12
0&
1P
0Q
0@
1/
#436000
0!
01
02
1&
#437000
1!
11
12
0&
1Q
1@
16
04
0/
17
#438000
0!
01
02
1&
#439000
1!
11
12
0&
1O
0P
0Q
08
07
06
0@
1/
1:
09
18
17
1A
0;
0-
0:
19
1<
1;
1-
0<
#440000
0!
01
02
1&
#441000
1!
11
12
0&
1Q
1@
14
0/
0A
#442000
0!
01
02
1&
#443000
1!
11
12
0&
1P
0Q
0@
1/
#444000
0!
01
02
1&
#445000
1!
11
12
0&
1Q
1@
16
04
0/
08
07
1:
09
0;
0-
1<
#446000
0!
01
02
1&
#447000
1!
11
12
0&
1L
0N
0O
0P
0Q
0M
1=
0<
0:
19
18
17
06
0@
1/
1;
1-
0>
0.
0-
09
07
1A
0=
1<
0?
0B
1>
1.
1C
1?
0D
#448000
0!
01
02
1&
#449000
1!
11
12
0&
1Q
1@
14
0/
0A
1B
0C
1D
#450000
0!
01
02
1&
#451000
1!
11
12
0&
1P
0Q
0@
1/
#452000
0!
01
02
1&
#453000
1!
11
12
0&
1Q
1@
16
04
0/
17
#454000
0!
01
02
1&
#455000
1!
11
12
0&
1O
0P
0Q
08
07
06
0@
1/
19
18
17
1A
09
#456000
0!
01
02
1&
#457000
1!
11
12
0&
1Q
1@
14
0/
0A
#458000
0!
01
02
1&
#459000
1!
11
12
0&
1P
0Q
0@
1/
#460000
0!
01
02
1&
#461000
1!
11
12
0&
1Q
1@
16
04
0/
08
07
19
#462000
0!
01
02
1&
#463000
1!
11
12
0&
1N
0O
0P
0Q
1:
09
18
17
06
0@
1/
1-
0:
19
07
1A
0-
0B
#464000
0!
01
02
1&
#465000
1!
11
12
0&
1Q
1@
14
0/
0A
1B
#466000
0!
01
02
1&
#467000
1!
11
12
0&
1P
0Q
0@
1/
#468000
0!
01
02
1&
#469000
1!
11
12
0&
1Q
1@
16
04
0/
17
#470000
0!
01
02
1&
#471000
1!
11
12
0&
1O
0P
0Q
08
07
06
0@
1/
1:
09
18
17
1A
1-
0:
19
0-
#472000
0!
01
02
1&
#473000
1!
11
12
0&
1Q
1@
14
0/
0A
#474000
0!
01
02
1&
#475000
1!
11
12
0&
1P
0Q
0@
1/
#476000
0!
01
02
1&
#477000
1!
11
12
0&
1Q
1@
16
04
0/
08
07
1:
09
1-
#478000
0!
01
02
1&
#479000
1!
11
12
0&
0N
0O
0P
0Q
1M
0:
19
18
17
06
0@
1/
0;
0-
1;
1-
09
07
1A
1=
0<
0=
1<
0B
0>
0.
1>
1.
1C
0?
1?
#480000
0!
01
02
1&
#481000
1!
11
12
0&
1Q
1@
14
0/
0A
1B
0C
#482000
0!
01
02
1&
#483000
1!
11
12
0&
1P
0Q
0@
1/
#484000
0!
01
02
1&
#485000
1!
11
12
0&
1Q
1@
16
04
0/
17
#486000
0!
01
02
1&
#487000
1!
11
12
0&
1O
0P
0Q
08
07
06
0@
1/
19
18
17
1A
09
#488000
0!
01
02
1&
#489000
1!
11
12
0&
1Q
1@
14
0/
0A
#490000
0!
01
02
1&
