src/pwm_controller/simulation/qsim/pwm_controller.msim.vcd
$comment
	File created using the following command:
		vcd file pwm_controller.msim.vcd -direction
$end
$date
	Sun Aug 19 02:33:23 2018
$end
$version
	ModelSim Version 10.1d
$end
$timescale
	1ps
$end
$scope module pwm_controller_vlg_vec_tst $end
$var reg 1 ! clk $end
$var reg 8 " duty [7:0] $end
$var reg 1 # enable $end
$var reg 1 $ reset $end
$var reg 1 % set_duty $end
$var wire 1 & pulse $end
$var wire 1 ' sampler $end
$scope module i1 $end
$var wire 1 ( gnd $end
$var wire 1 ) vcc $end
$var wire 1 * unknown $end
$var tri1 1 + devclrn $end
$var tri1 1 , devpor $end
$var tri1 1 - devoe $end
$var wire 1 . counter[4]~13_combout $end
$var wire 1 / counter[6]~17_combout $end
$var wire 1 0 current_duty[5]~2_combout $end
$var wire 1 1 current_duty[2]~5_combout $end
$var wire 1 2 current_duty[1]~6_combout $end
$var wire 1 3 current_duty[0]~7_combout $end
$var wire 1 4 enable~combout $end
$var wire 1 5 clk~combout $end
$var wire 1 6 clk~clkctrl_outclk $end
$var wire 1 7 reset~combout $end
$var wire 1 8 current_duty[7]~0_combout $end
$var wire 1 9 set_duty~combout $end
$var wire 1 : counter[1]~7_combout $end
$var wire 1 ; reset~clkctrl_outclk $end
$var wire 1 < counter[1]~8 $end
$var wire 1 = counter[2]~9_combout $end
$var wire 1 > counter[2]~10 $end
$var wire 1 ? counter[3]~11_combout $end
$var wire 1 @ counter[3]~12 $end
$var wire 1 A counter[4]~14 $end
$var wire 1 B counter[5]~15_combout $end
$var wire 1 C counter[5]~16 $end
$var wire 1 D counter[6]~18 $end
$var wire 1 E counter[7]~19_combout $end
$var wire 1 F current_duty[6]~1_combout $end
$var wire 1 G current_duty[4]~3_combout $end
$var wire 1 H current_duty[3]~4_combout $end
$var wire 1 I counter[0]~21_combout $end
$var wire 1 J LessThan0~1_cout $end
$var wire 1 K LessThan0~3_cout $end
$var wire 1 L LessThan0~5_cout $end
$var wire 1 M LessThan0~7_cout $end
$var wire 1 N LessThan0~9_cout $end
$var wire 1 O LessThan0~11_cout $end
$var wire 1 P LessThan0~13_cout $end
$var wire 1 Q LessThan0~14_combout $end
$var wire 1 R pulse~0_combout $end
$var wire 1 S pulse~reg0_regout $end
$var wire 1 T duty~combout [7] $end
$var wire 1 U duty~combout [6] $end
$var wire 1 V duty~combout [5] $end
$var wire 1 W duty~combout [4] $end
$var wire 1 X duty~combout [3] $end
$var wire 1 Y duty~combout [2] $end
$var wire 1 Z duty~combout [1] $end
$var wire 1 [ duty~combout [0] $end
$var wire 1 \ counter [7] $end
$var wire 1 ] counter [6] $end
$var wire 1 ^ counter [5] $end
$var wire 1 _ counter [4] $end
$var wire 1 ` counter [3] $end
$var wire 1 a counter [2] $end
$var wire 1 b counter [1] $end
$var wire 1 c counter [0] $end
$var wire 1 d current_duty [7] $end
$var wire 1 e current_duty [6] $end
$var wire 1 f current_duty [5] $end
$var wire 1 g current_duty [4] $end
$var wire 1 h current_duty [3] $end
$var wire 1 i current_duty [2] $end
$var wire 1 j current_duty [1] $end
$var wire 1 k current_duty [0] $end
$upscope $end
$upscope $end
$enddefinitions $end
#0
$dumpvars
0!
b0 "
1#
0$
0%
0&
x'
0(
1)
x*
1+
1,
1-
0.
0/
10
11
12
13
14
05
06
07
18
09
0:
0;
0<
0=
1>
0?
0@
1A
0B
0C
1D
0E
1F
1G
1H
1I
0J
1K
0L
1M
0N
1O
0P
0Q
1R
0S
0[
0Z
0Y
0X
0W
0V
0U
0T
0c
0b
0a
0`
0_
0^
0]
0\
0k
0j
0i
0h
0g
0f
0e
0d
$end
#1000
1!
15
16
0'
1S
1c
0I
1:
1&
#2000
0!
05
06
1'
#3000
1!
15
16
0'
0c
1b
1I
#4000
0!
05
06
1'
#5000
1!
15
16
0'
1c
0I
1<
0:
1=
#6000
0!
05
06
1'
#7000
1!
15
16
0'
0c
1a
0b
1I
0<
0>
0=
1>
1=
1?
0?
#8000
0!
05
06
1'
#9000
1!
15
16
0'
1c
0I
1:
#10000
0!
05
06
1'
#11000
1!
15
16
0'
0c
1b
1I
#12000
0!
05
06
1'
#13000
1!
15
16
0'
1c
0I
1<
0:
0>
0=
1?
#14000
0!
05
06
1'
#15000
1!
15
16
0'
0c
1`
0a
0b
1I
0<
1@
0?
1>
1=
0=
1.
0@
1?
0.
#16000
0!
05
06
1'
#17000
1!
15
16
0'
1c
0I
1:
#18000
0!
05
06
1'
#19000
1!
15
16
0'
0c
1b
1I
#20000
0!
05
06
1'
#21000
1!
15
16
0'
1c
0I
1<
0:
1=
#22000
0!
05
06
1'
#23000
1!
15
16
0'
0c
1a
0b
1I
0<
0>
0=
1>
1=
1@
0?
0@
1?
1.
0.
#24000
0!
05
06
1'
#25000
1!
15
16
0'
1c
0I
1:
#26000
0!
05
06
1'
#27000
1!
15
16
0'
0c
1b
1I
#28000
0!
05
06
1'
#29000
1!
15
16
0'
1c
0I
1<
0:
0>
0=
1@
0?
1.
#30000
0!
05
06
1'
#31000
1!
15
16
0'
0c
0`
0a
0b
1_
1I
0<
0@
1?
1>
1=
0A
0.
0=
1A
1.
0?
1B
0B
#32000
0!
05
06
1'
#33000
1!
15
16
0'
1c
0I
1:
#34000
0!
05
06
1'
#35000
1!
15
16
0'
0c
1b
1I
#36000
0!
05
06
1'
#37000
1!
15
16
0'
1c
0I
1<
0:
1=
#38000
0!
05
06
1'
#39000
1!
15
16
0'
0c
1a
0b
1I
0<
0>
0=
1>
1=
1?
0?
#40000
0!
05
06
1'
#41000
1!
15
16
0'
1c
0I
1:
#42000
0!
05
06
1'
#43000
1!
15
16
0'
0c
1b
1I
#44000
0!
05
06
1'
#45000
1!
15
16
0'
1c
0I
1<
0:
0>
0=
1?
#46000
0!
05
06
1'
#47000
1!
15
16
0'
0c
1`
0a
0b
1I
0<
1@
0?
1>
1=
0=
0A
0.
0@
1?
1B
1A
1.
0B
#48000
0!
05
06
1'
#49000
1!
15
16
0'
1c
0I
1:
#50000
0!
05
06
1'
#51000
1!
15
16
0'
0c
1b
1I
#52000
0!
05
06
1'
#53000
1!
15
16
0'
1c
0I
1<
0:
1=
#54000
0!
05
06
1'
#55000
1!
15
16
0'
0c
1a
0b
1I
0<
0>
0=
1>
1=
1@
0?
0@
1?
0A
0.
1A
1.
1B
0B
#56000
0!
05
06
1'
#57000
1!
15
16
0'
1c
0I
1:
#58000
0!
05
06
1'
#59000
1!
15
16
0'
0c
1b
1I
#60000
0!
05
06
1'
#61000
1!
15
16
0'
1c
0I
1<
0:
0>
0=
1@
0?
0A
0.
1B
#62000
0!
05
06
1'
#63000
1!
15
16
0'
0c
1^
0`
0a
0b
0_
1I
0<
1C
0B
0@
1?
1>
1=
1A
1.
0=
1/
0.
0?
0C
1B
0/
#64000
0!
05
06
1'
#65000
1!
15
16
0'
1c
0I
1:
#66000
0!
05
06
1'
#67000
1!
15
16
0'
0c
1b
1I
#68000
0!
05
06
1'
#69000
1!
15
16
0'
1c
0I
1<
0:
1=
#70000
0!
05
06
1'
#71000
1!
15
16
0'
0c
1a
0b
1I
0<
0>
0=
1>
1=
1?
0?
#72000
0!
05
06
1'
#73000
1!
15
16
0'
1c
0I
1:
#74000
0!
05
06
1'
#75000
1!
15
16
0'
0c
1b
1I
#76000
0!
05
06
1'
#77000
1!
15
16
0'
1c
0I
1<
0:
0>
0=
1?
#78000
0!
05
06
1'
#79000
1!
15
16
0'
0c
1`
0a
0b
1I
0<
1@
0?
1>
1=
0=
1.
0@
1?
0.
#80000
0!
05
06
1'
#81000
1!
15
16
0'
1c
0I
1:
#82000
0!
05
06
1'
#83000
1!
15
16
0'
0c
1b
1I
#84000
0!
05
06
1'
#85000
1!
15
16
0'
1c
0I
1<
0:
1=
#86000
0!
05
06
1'
#87000
1!
15
16
0'
0c
1a
0b
1I
0<
0>
0=
1>
1=
1@
0?
0@
1?
1.
0.
#88000
0!
05
06
1'
#89000
1!
15
16
0'
1c
0I
1:
#90000
0!
05
06
1'
#91000
1!
15
16
0'
0c
1b
1I
#92000
0!
05
06
1'
#93000
1!
15
16
0'
1c
0I
1<
0:
0>
0=
1@
0?
1.
#94000
0!
05
06
1'
#95000
1!
15
16
0'
0c
0`
0a
0b
1_
1I
0<
0@
1?
1>
1=
0A
0.
0=
1A
1.
0?
1C
0B
0C
1B
1/
0/
#96000
0!
05
06
1'
#97000
1!
15
16
0'
1c
0I
1:
#98000
0!
05
06
1'
#99000
1!
15
16
0'
0c
1b
1I
#100000
0!
05
06
1'
#101000
1!
15
16
0'
1c
0I
1<
0:
1=
#102000
0!
05
06
1'
#103000
1!
15
16
0'
0c
1a
0b
1I
0<
0>
0=
1>
1=
1?
0?
#104000
0!
05
06
1'
#105000
1!
15
16
0'
1c
0I
1:
#106000
0!
05
06
1'
#107000
1!
15
16
0'
0c
1b
1I
#108000
0!
05
06
1'
#109000
1!
15
16
0'
1c
0I
1<
0:
0>
0=
1?
#110000
0!
05
06
1'
#111000
1!
15
16
0'
0c
1`
0a
0b
1I
0<
1@
0?
1>
1=
0=
0A
0.
0@
1?
1C
0B
1A
1.
1/
0C
1B
0/
#112000
0!
05
06
1'
#113000
1!
15
16
0'
1c
0I
1:
#114000
0!
05
06
1'
#115000
1!
15
16
0'
0c
1b
1I
#116000
0!
05
06
1'
#117000
1!
15
16
0'
1c
0I
1<
0:
1=
#118000
0!
05
06
1'
#119000
1!
15
16
0'
0c
1a
0b
1I
0<
0>
0=
1>
1=
1@
0?
0@
1?
0A
0.
1A
1.
1C
0B
0C
1B
1/
0/
#120000
0!
05
06
1'
#121000
1!
15
16
0'
1c
0I
1:
#122000
0!
05
06
1'
#123000
1!
15
16
0'
0c
1b
1I
#124000
0!
05
06
1'
#125000
1!
15
16
0'
1c
0I
1<
0:
0>
0=
1@
0?
0A
0.
1C
0B
1/
#126000
0!
05
06
1'
#127000
1!
15
16
0'
0c
0^
0`
0a
0b
0_
1]
1I
0<
0C
1B
0@
1?
1>
1=
1A
1.
0D
0/
0=
1D
1/
0.
0?
0B
1E
0E
#128000
0!
05
06
1'
#129000
1!
15
16
0'
1c
0I
1:
#130000
0!
05
06
1'
#131000
1!
15
16
0'
0c
1b
1I
#132000
0!
05
06
1'
#133000
1!
15
16
0'
1c
0I
1<
0:
1=
#134000
0!
05
06
1'
#135000
1!
15
16
0'
0c
1a
0b
1I
0<
0>
0=
1>
1=
1?
0?
#136000
0!
05
06
1'
#137000
1!
15
16
0'
1c
0I
1:
#138000
0!
05
06
1'
#139000
1!
15
16
0'
0c
1b
1I
#140000
0!
05
06
1'
#141000
1!
15
16
0'
1c
0I
1<
0:
0>
0=
1?
#142000
0!
05
06
1'
#143000
1!
15
16
0'
0c
1`
0a
0b
1I
0<
1@
0?
1>
1=
0=
1.
0@
1?
0.
#144000
0!
05
06
1'
#145000
1!
15
16
0'
1c
0I
1:
#146000
0!
05
06
1'
#147000
1!
15
16
0'
0c
1b
1I
#148000
0!
05
06
1'
#149000
1!
15
16
0'
1c
0I
1<
0:
1=
#150000
0!
05
06
1'
#151000
1!
15
16
0'
0c
1a
0b
1I
0<
0>
0=
1>
1=
1@
0?
0@
1?
1.
0.
#152000
0!
05
06
1'
#153000
1!
15
16
0'
1c
0I
1:
#154000
0!
05
06
1'
#155000
1!
15
16
0'
0c
1b
1I
#156000
0!
05
06
1'
#157000
1!
15
16
0'
1c
0I
1<
0:
0>
0=
1@
0?
1.
#158000
0!
05
06
1'
#159000
1!
15
16
0'
0c
0`
0a
0b
1_
1I
0<
0@
1?
1>
1=
0A
0.
0=
1A
1.
0?
1B
0B
#160000
0!
05
06
1'
#161000
1!
15
16
0'
1c
0I
1:
#162000
0!
05
06
1'
#163000
1!
15
16
0'
0c
1b
1I
#164000
0!
05
06
1'
#165000
1!
15
16
0'
1c
0I
1<
0:
1=
#166000
0!
05
06
1'
#167000
1!
15
16
0'
0c
1a
0b
1I
0<
0>
0=
1>
1=
1?
0?
#168000
0!
05
06
1'
#169000
1!
15
16
0'
1c
0I
1:
#170000
0!
05
06
1'
#171000
1!
15
16
0'
0c
1b
1I
#172000
0!
05
06
1'
#173000
1!
15
16
0'
1c
0I
1<
0:
0>
0=
1?
#174000
0!
05
06
1'
#175000
1!
15
16
0'
0c
1`
0a
0b
1I
0<
1@
0?
1>
1=
0=
0A
0.
0@
1?
1B
1A
1.
0B
#176000
0!
05
06
1'
#177000
1!
15
16
0'
1c
0I
1:
#178000
0!
05
06
1'
#179000
1!
15
16
0'
0c
1b
1I
#180000
0!
05
06
1'
#181000
1!
15
16
0'
1c
0I
1<
0:
1=
#182000
0!
05
06
1'
#183000
1!
15
16
0'
0c
1a
0b
1I
0<
0>
0=
1>
1=
1@
0?
0@
1?
0A
0.
1A
1.
1B
0B
#184000
0!
05
06
1'
#185000
1!
15
16
0'
1c
0I
1:
#186000
0!
05
06
1'
#187000
1!
15
16
0'
0c
1b
1I
#188000
0!
05
06
1'
#189000
1!
15
16
0'
1c
0I
1<
0:
0>
0=
1@
0?
0A
0.
1B
#190000
0!
05
06
1'
#191000
1!
15
16
0'
0c
1^
0`
0a
0b
0_
1I
0<
1C
0B
0@
1?
1>
1=
1A
1.
0=
0D
0/
0.
0?
0C
1B
1E
1D
1/
0E
#192000
0!
05
06
1'
#193000
1!
15
16
0'
1c
0I
1:
#194000
0!
05
06
1'
#195000
1!
15
16
0'
0c
1b
1I
#196000
0!
05
06
1'
#197000
1!
15
16
0'
1c
0I
1<
0:
1=
#198000
0!
05
06
1'
#199000
1!
15
16
0'
0c
1a
0b
1I
0<
0>
0=
1>
1=
1?
0?
#200000
0!
05
06
1'
#201000
1!
15
16
0'
1c
0I
1:
#202000
0!
05
06
1'
#203000
1!
15
16
0'
0c
1b
1I
#204000
0!
05
06
1'
#205000
1!
15
16
0'
1c
0I
1<
0:
0>
0=
1?
#206000
0!
05
06
1'
#207000
1!
15
16
0'
0c
1`
0a
0b
1I
0<
1@
0?
1>
1=
0=
1.
0@
1?
0.
#208000
0!
05
06
1'
#209000
1!
15
16
0'
1c
0I
1:
#210000
0!
05
06
1'
#211000
1!
15
16
0'
0c
1b
1I
#212000
0!
05
06
1'
#213000
1!
15
16
0'
1c
0I
1<
0:
1=
#214000
0!
05
06
1'
#215000
1!
15
16
0'
0c
1a
0b
1I
0<
0>
0=
1>
1=
1@
0?
0@
1?
1.
0.
#216000
0!
05
06
1'
#217000
1!
15
16
0'
1c
0I
1:
#218000
0!
05
06
1'
#219000
1!
15
16
0'
0c
1b
1I
#220000
0!
05
06
1'
#221000
1!
15
16
0'
1c
0I
1<
0:
0>
0=
1@
0?
1.
#222000
0!
05
06
1'
#223000
1!
15
16
0'
0c
0`
0a
0b
1_
1I
0<
0@
1?
1>
1=
0A
0.
0=
1A
1.
0?
1C
0B
0C
1B
0D
0/
1D
1/
1E
0E
#224000
0!
05
06
1'
#225000
1!
15
16
0'
1c
0I
1:
#226000
0!
05
06
1'
#227000
1!
15
16
0'
0c
1b
1I
#228000
0!
05
06
1'
#229000
1!
15
16
0'
1c
0I
1<
0:
1=
#230000
0!
05
06
1'
#231000
1!
15
16
0'
0c
1a
0b
1I
0<
0>
0=
1>
1=
1?
0?
#232000
0!
05
06
1'
#233000
1!
15
16
0'
1c
0I
1:
#234000
0!
05
06
1'
#235000
1!
15
16
0'
0c
1b
1I
#236000
0!
05
06
1'
#237000
1!
15
16
0'
1c
0I
1<
0:
0>
0=
1?
#238000
0!
05
06
1'
#239000
1!
15
16
0'
0c
1`
0a
0b
1I
0<
1@
0?
1>
1=
0=
0A
0.
0@
1?
1C
0B
1A
1.
0D
0/
0C
1B
1E
1D
1/
0E
#240000
0!
05
06
1'
#241000
1!
15
16
0'
1c
0I
1:
#242000
0!
05
06
1'
#243000
1!
15
16
0'
0c
1b
1I
#244000
0!
05
06
1'
#245000
1!
15
16
0'
1c
0I
1<
0:
1=
#246000
0!
05
06
1'
#247000
1!
15
16
0'
0c
1a
0b
1I
0<
0>
0=
1>
1=
1@
0?
0@
1?
0A
0.
1A
1.
1C
0B
0C
1B
0D
0/
1D
1/
1E
0E
#248000
0!
05
06
1'
#249000
1!
15
16
0'
1c
0I
1:
#250000
0!
05
06
1'
#251000
1!
15
16
0'
0c
1b
1I
#252000
0!
05
06
1'
#253000
1!
15
16
0'
1c
0I
1<
0:
0>
0=
1@
0?
0A
0.
1C
0B
0D
0/
1E
#254000
0!
05
06
1'
#255000
1!
15
16
0'
0c
1\
0^
0`
0a
0b
0_
0]
1I
0<
0E
0C
1B
0@
1?
1>
1=
1A
1.
1D
1/
0=
0/
0.
0?
0B
1E
#256000
0!
05
06
1'
#257000
1!
15
16
0'
1c
0I
1:
#258000
0!
05
06
1'
#259000
1!
15
16
0'
0c
1b
1I
#260000
0!
05
06
1'
#261000
1!
15
16
0'
1c
0I
1<
0:
1=
#262000
0!
05
06
1'
#263000
1!
15
16
0'
0c
1a
0b
1I
0<
0>
0=
1>
1=
1?
0?
#264000
0!
05
06
1'
#265000
1!
15
16
0'
1c
0I
1:
#266000
0!
05
06
1'
#267000
1!
15
16
0'
0c
1b
1I
#268000
0!
05
06
1'
#269000
1!
15
16
0'
1c
0I
1<
0:
0>
0=
1?
#270000
0!
05
06
1'
#271000
1!
15
16
0'
0c
1`
0a
0b
1I
0<
1@
0?
1>
1=
0=
1.
0@
1?
0.
#272000
0!
05
06
1'
#273000
1!
15
16
0'
1c
0I
1:
#274000
0!
05
06
1'
#275000
1!
15
16
0'
0c
1b
1I
#276000
0!
05
06
1'
#277000
1!
15
16
0'
1c
0I
1<
0:
1=
#278000
0!
05
06
1'
#279000
1!
15
16
0'
0c
1a
0b
1I
0<
0>
0=
1>
1=
1@
0?
0@
1?
1.
0.
#280000
0!
05
06
1'
#281000
1!
15
16
0'
1c
0I
1:
#282000
0!
05
06
1'
#283000
1!
15
16
0'
0c
1b
1I
#284000
0!
05
06
1'
#285000
1!
15
16
0'
1c
0I
1<
0:
0>
0=
1@
0?
1.
#286000
0!
05
06
1'
#287000
1!
15
16
0'
0c
0`
0a
0b
1_
1I
0<
0@
1?
1>
1=
0A
0.
0=
1A
1.
0?
1B
0B
#288000
0!
05
06
1'
#289000
1!
15
16
0'
1c
0I
1:
#290000
b100 "
b110 "
b111 "
0!
1[
1Z
1Y
05
06
1'
03
02
01
#291000
1!
15
16
0'
0c
1b
1I
#292000
0!
05
06
1'
#293000
1!
15
16
0'
1c
0I
1<
0:
1=
#294000
0!
05
06
1'
#295000
1!
15
16
0'
0c
1a
0b
1I
0<
0>
0=
1>
1=
1?
0?
#296000
0!
05
06
1'
#297000
1!
15
16
0'
1c
0I
1:
#298000
0!
05
06
1'
#299000
1!
15
16
0'
0c
1b
1I
#300000
0!
05
06
1'
#301000
1!
15
16
0'
1c
0I
1<
0:
0>
0=
1?
#302000
0!
05
06
1'
#303000
1!
15
16
0'
0c
1`
0a
0b
1I
0<
1@
0?
1>
1=
0=
0A
0.
0@
1?
1B
1A
1.
0B
#304000
0!
05
06
1'
#305000
1!
15
16
0'
1c
0I
1:
#306000
0!
05
06
1'
#307000
1!
15
16
0'
0c
1b
1I
#308000
0!
05
06
1'
#309000
1!
15
16
0'
1c
0I
1<
0:
1=
#310000
0!
05
06
1'
#311000
1!
15
16
0'
0c
1a
0b
1I
0<
0>
0=
1>
1=
1@
0?
0@
1?
0A
0.
1A
1.
1B
0B
#312000
0!
05
06
1'
#313000
1!
15
16
0'
1c
0I
1:
#314000
0!
05
06
1'
#315000
1!
15
16
0'
0c
1b
1I
#316000
0!
05
06
1'
#317000
1!
15
16
0'
1c
0I
1<
0:
0>
0=
1@
0?
0A
0.
1B
#318000
0!
05
06
1'
#319000
1!
15
16
0'
0c
1^
0`
0a
0b
0_
1I
0<
1C
0B
0@
1?
1>
1=
1A
1.
0=
1/
0.
0?
0C
1B
0/
#320000
0!
05
06
1'
#321000
1!
15
16
0'
1c
0I
1:
#322000
0!
05
06
1'
#323000
1!
15
16
0'
0c
1b
1I
#324000
0!
05
06
1'
#325000
1!
15
16
0'
1c
0I
1<
0:
1=
#326000
0!
05
06
1'
#327000
1!
15
16
0'
0c
1a
0b
1I
0<
0>
0=
1>
1=
1?
0?
#328000
0!
05
06
1'
#329000
1!
15
16
0'
1c
0I
1:
#330000
1%
0!
19
05
06
1'
#331000
1!
15
16
0'
0c
1h
1g
1e
1b
1d
1f
1I
1Q
0O
0R
1P
#332000
0!
05
06
1'
#333000
1!
15
16
0'
0S
1c
0I
1<
0:
0&
0>
0=
1?
#334000
0!
05
06
1'
#335000
1!
15
16
0'
0c
1`
0a
0b
1I
0<
0M
1@
0?
1>
1=
0=
1N
1.
0@
1?
0.
#336000
0!
05
06
1'
#337000
1!
15
16
0'
1c
0I
1:
#338000
0!
05
06
1'
#339000
1!
15
16
0'
0c
1b
1I
#340000
0!
05
06
1'
#341000
1!
15
16
0'
1c
0I
1<
0:
1=
#342000
0!
05
06
1'
#343000
1!
15
16
0'
0c
1a
0b
1I
0<
0>
0=
1>
1=
1@
0?
0@
1?
1.
0.
#344000
0!
05
06
1'
#345000
1!
15
16
0'
1c
0I
1:
#346000
0!
05
06
1'
#347000
1!
15
16
0'
0c
1b
1I
#348000
0!
05
06
1'
#349000
1!
15
16
0'
1c
0I
1<
0:
0>
0=
1@
0?
1.
#350000
0!
05
06
1'
#351000
1!
15
16
0'
0c
0`
0a
0b
1_
1I
0<
1M
0@
1?
1>
1=
0A
0.
0=
1A
1.
0?
1C
0B
0C
1B
1/
0/
#352000
0!
05
06
1'
#353000
1!
15
16
0'
1c
0I
1:
#354000
0!
05
06
1'
#355000
1!
15
16
0'
0c
1b
1I
#356000
0!
05
06
1'
#357000
1!
15
16
0'
1c
0I
1<
0:
1=
#358000
0!
05
06
1'
#359000
1!
15
16
0'
0c
1a
0b
1I
0<
0>
0=
1>
1=
1?
0?
#360000
0!
05
06
1'
#361000
1!
15
16
0'
1c
0I
1:
#362000
0!
05
06
1'
#363000
1!
15
16
0'
0c
1b
1I
#364000
0!
05
06
1'
#365000
1!
15
16
0'
1c
0I
1<
0:
0>
0=
1?
#366000
0!
05
06
1'
#367000
1!
15
16
0'
0c
1`
0a
0b
1I
0<
0M
1@
0?
1>
1=
0=
0A
0.
0@
1?
1C
0B
1A
1.
1/
0C
1B
0/
#368000
0!
05
06
1'
#369000
1!
15
16
0'
1c
0I
1:
#370000
0!
05
06
1'
#371000
1!
15
16
0'
0c
1b
1I
#372000
0!
05
06
1'
#373000
1!
15
16
0'
1c
0I
1<
0:
1=
#374000
0!
05
06
1'
#375000
1!
15
16
0'
0c
1a
0b
1I
0<
0>
0=
1>
1=
1@
0?
0@
1?
0A
0.
1A
1.
1C
0B
0C
1B
1/
0/
#376000
0!
05
06
1'
#377000
1!
15
16
0'
1c
0I
1:
#378000
0!
05
06
1'
#379000
1!
15
16
0'
0c
1b
1I
#380000
b11 "
b1 "
b0 "
0!
0[
0Z
0Y
05
06
1'
13
12
11
#381000
1!
15
16
0'
1c
1k
1j
1i
1J
0I
1<
0:
0K
1L
0>
0=
1@
0?
0A
0.
1C
0B
1/
#382000
0!
05
06
1'
#383000
1!
15
16
0'
0c
0^
0`
0a
0b
0_
1]
0J
1I
0<
0C
1B
0@
1?
1>
1=
1A
1.
0D
0/
1K
0=
1D
1/
0.
0?
0B
0E
0L
1E
1M
0N
1O
#384000
0!
05
06
1'
#385000
1!
15
16
0'
1c
1J
0I
1:
0K
1L
0M
1N
0O
#386000
0!
05
06
1'
#387000
1!
15
16
0'
0c
1b
0J
1I
#388000
0!
05
06
1'
#389000
1!
15
16
0'
1c
1J
0I
1<
0:
1=
#390000
0!
05
06
1'
#391000
1!
15
16
0'
0c
1a
0b
0J
1I
0<
0>
0=
1K
1>
1=
1?
0?
#392000
0!
05
06
1'
#393000
1!
15
16
0'
1c
1J
0I
1:
0K
#394000
0!
05
06
1'
#395000
1!
15
16
0'
0c
1b
0J
1I
#396000
0!
05
06
1'
#397000
1!
15
16
0'
1c
1J
0I
1<
0:
0>
0=
1?
#398000
0!
05
06
1'
#399000
1!
15
16
0'
0c
1`
0a
0b
0J
1I
0<
1@
0?
1>
1=
1K
0=
1.
0@
1?
0L
0.
#400000
0!
05
06
1'
#401000
1!
15
16
0'
1c
1J
0I
1:
0K
1L
#402000
0!
05
06
1'
#403000
1!
15
16
0'
0c
1b
0J
1I
#404000
0!
05
06
1'
#405000
1!
15
16
0'
1c
1J
0I
1<
0:
1=
#406000
0!
05
06
1'
#407000
1!
15
16
0'
0c
1a
0b
0J
1I
0<
0>
0=
1K
1>
1=
1@
0?
0@
1?
1.
0.
#408000
0!
05
06
1'
#409000
1!
15
16
0'
1c
1J
0I
1:
0K
#410000
0!
05
06
1'
#411000
1!
15
16
0'
0c
1b
0J
1I
#412000
0!
05
06
1'
#413000
1!
15
16
0'
1c
1J
0I
1<
0:
0>
0=
1@
0?
1.
#414000
0!
05
06
1'
#415000
1!
15
16
0'
0c
0`
0a
0b
1_
0J
1I
0<
0@
1?
1>
1=
0A
0.
1K
0=
1A
1.
0?
1B
0L
0B
1M
#416000
0!
05
06
1'
#417000
1!
15
16
0'
1c
1J
0I
1:
0K
1L
0M
#418000
0!
05
06
1'
#419000
1!
15
16
0'
0c
1b
0J
1I
#420000
0!
05
06
1'
#421000
1!
15
16
0'
1c
1J
0I
1<
0:
1=
#422000
0!
05
06
1'
#423000
1!
15
16
0'
0c
1a
0b
0J
1I
0<
0>
0=
1K
1>
1=
1?
0?
#424000
0!
05
06
1'
#425000
1!
15
16
0'
1c
1J
0I
1:
0K
#426000
0!
05
06
1'
#427000
1!
15
16
0'
0c
1b
0J
1I
#428000
0!
05
06
1'
#429000
1!
15
16
0'
1c
1J
0I
1<
0:
0>
0=
1?
#430000
0!
05
06
1'
#431000
1!
15
16
0'
0c
1`
0a
0b
0J
1I
0<
1@
0?
1>
1=
1K
0=
0A
0.
0@
1?
0L
1B
1A
1.
0B
#432000
0!
05
06
1'
#433000
1!
15
16
0'
1c
1J
0I
1:
0K
1L
#434000
0!
05
06
1'
#435000
1!
15
16
0'
0c
1b
0J
1I
#436000
0!
05
06
1'
#437000
1!
15
16
0'
1c
1J
0I
1<
0:
1=
#438000
0!
05
06
1'
#439000
1!
15
16
0'
0c
1a
0b
0J
1I
0<
0>
0=
1K
1>
1=
1@
0?
0@
1?
0A
0.
1A
1.
1B
0B
#440000
0!
05
06
1'
#441000
1!
15
16
0'
1c
1J
0I
1:
0K
#442000
0!
05
06
1'
#443000
1!
15
16
0'
0c
1b
0J
1I
#444000
0!
05
06
1'
#445000
1!
15
16
0'
1c
1J
0I
1<
0:
0>
0=
1@
0?
0A
0.
1B
#446000
0!
05
06
1'
#447000
1!
15
16
0'
0c
1^
0`
0a
0b
0_
0J
1I
0<
1C
0B
0@
1?
1>
1=
1A
1.
1K
0=
0D
0/
0.
0?
0C
1B
0L
0E
1D
1/
1M
1E
0N
#448000
0!
05
06
1'
#449000
1!
15
16
0'
1c
1J
0I
1:
0K
1L
0M
1N
#450000
0!
05
06
1'
#451000
1!
15
16
0'
0c
1b
0J
1I
#452000
0!
05
06
1'
#453000
1!
15
16
0'
1c
1J
0I
1<
0:
1=
#454000
0!
05
06
1'
#455000
1!
15
16
0'
0c
1a
0b
0J
1I
0<
0>
0=
1K
1>
1=
1?
0?
#456000
0!
05
06
1'
#457000
1!
15
16
0'
1c
1J
0I
1:
0K
#458000
0!
05
06
1'
#459000
1!
15
16
0'
0c
1b
0J
1I
#460000
b10000000 "
b11000000 "
b11100000 "
b11110000 "
b11111000 "
b11111100 "
b11111110 "
b11111111 "
0!
1[
1Z
1Y
1X
1W
1V
1U
1T
05
06
1'
03
02
01
0H
0G
00
0F
08
#461000
1!
15
16
0'
1c
0h
0g
0e
0d
0k
0j
0i
0f
0I
1<
0:
1M
0N
1K
0>
0=
1O
0L
1?
0P
0Q
1R
#462000
0!
05
06
1'
#463000
1!
15
16
0'
1S
0c
1`
0a
0b
1I
0<
1@
0?
1>
1=
1&
0=
1.
0@
1?
0.
#464000
0!
05
06
1'
#465000
1!
15
16
0'
1c
0I
1:
#466000
0!
05
06
1'
#467000
1!
15
16
0'
0c
1b
1I
#468000
0!
05
06
1'
#469000
1!
15
16
0'
1c
0I
1<
0:
1=
#470000
0%
0!
09
05
06
1'
#471000
1!
15
16
0'
0c
1a
0b
1I
0<
0>
0=
1>
1=
1@
0?
0@
1?
1.
0.
#472000
0!
05
06
1'
#473000
1!
15
16
0'
1c
0I
1:
#474000
0!
05
06
1'
#475000
1!
15
16
0'
0c
1b
1I
#476000
0!
05
06
1'
#477000
1!
15
16
0'
1c
0I
1<
0:
0>
0=
1@
0?
1.
#478000
0!
05
06
1'
#479000
1!
15
16
0'
0c
0`
0a
0b
1_
1I
0<
0@
1?
1>
1=
0A
0.
0=
1A
1.
0?
1C
0B
0C
1B
0D
0/
1D
1/
0E
1E
#480000
b1111111 "
b111111 "
b11111 "
b1111 "
b111 "
b11 "
b1 "
b0 "
0!
0[
0Z
0Y
0X
0W
0V
0U
0T
05
06
1'
13
12
11
1H
1G
10
1F
18
#481000
1!
15
16
0'
1c
0I
1:
#482000
0!
05
06
1'
#483000
1!
15
16
0'
0c
1b
1I
#484000
0!
05
06
1'
#485000
1!
15
16
0'
1c
0I
1<
0:
1=
#486000
0!
05
06
1'
#487000
1!
15
16
0'
0c
1a
0b
1I
0<
0>
0=
1>
1=
1?
0?
#488000
0!
05
06
1'
#489000
1!
15
16
0'
1c
0I
1:
#490000
0!
05
06
1'
#491000
1!
15
16
0'
0c
1b
1I
#492000
0!
05
06
1'
#493000
1!
15
16
0'
1c
0I
1<
0:
0>
0=
1?
#494000
0!
05
06
1'
